Division,WeightClassKg,Place,Name,Team,BodyweightKg,Best3SquatKg,Best3BenchKg,Best3DeadliftKg,TotalKg,Equipment,Event,Sex
Boys,51.71,1,Hector Villegas,Roma,51.62,149.69,81.65,154.22,385.55,Single-ply,SBD,M
Boys,51.71,2,Chris Marroquin,Hebbronville,49.35,136.08,70.31,138.35,344.73,Single-ply,SBD,M
Boys,51.71,3,Hector Lozano,Laredo United South,51.17,79.38,56.7,113.4,249.48,Single-ply,SBD,M
Boys,51.71,4,Nikalas Rosell,Laredo Alexander,48.08,81.65,56.7,106.59,244.94,Single-ply,SBD,M
Boys,59.87,1,Edgar Barbosa,Laredo Cigarroa,55.88,192.78,106.59,172.37,471.74,Single-ply,SBD,M
Boys,59.87,2,Roger Lozano,Roma,55.88,142.88,86.18,167.83,396.89,Single-ply,SBD,M
Boys,55.79,3,Cesar Esquivel,Laredo Cigarroa,55.79,149.69,70.31,165.56,385.55,Single-ply,SBD,M
Boys,55.79,4,Diego Cantu,Roma,55.34,133.81,61.23,142.88,337.93,Single-ply,SBD,M
Boys,55.79,5,Jesus Trevino,Zapata,55.52,122.47,65.77,149.69,337.93,Single-ply,SBD,M
Boys,59.87,1,Jerry Alaniz,Laredo Alexander,59.24,235.87,131.54,204.12,571.53,Single-ply,SBD,M
Boys,59.87,2,Eric Oliva,Laredo United South,58.42,183.7,104.33,185.97,474,Single-ply,SBD,M
Boys,59.87,3,Jairo Morales,Laredo Cigarroa,59.6,174.63,92.99,188.24,455.86,Single-ply,SBD,M
Boys,59.87,4,Rudy Martinez,Carrizo Springs,59.15,170.1,88.45,181.44,439.98,Single-ply,SBD,M
Boys,59.87,5,Jonathan Pena,Laredo United South,59.78,154.22,102.06,176.9,433.18,Single-ply,SBD,M
Boys,67.13,6,Issac Castillo,Laredo Cigarroa,60.06,163.29,83.91,167.83,415.04,Single-ply,SBD,M
Boys,59.87,7,Raul Cruz,Carrizo Springs,58.97,108.86,81.65,142.88,333.39,Single-ply,SBD,M
Boys,59.87,8,Fidel Quiroz,Laredo United,58.42,117.93,68.04,142.88,328.85,Single-ply,SBD,M
Boys,59.87,9,Maclovio Gomez,Zapata,58.24,108.86,68.04,138.35,315.25,Single-ply,SBD,M
Boys,59.87,10,Luis Garza,Laredo Nixon,56.15,90.72,61.23,124.74,276.69,Single-ply,SBD,M
Boys,67.13,1,David Lopez,Laredo United South,64.77,199.58,136.08,217.72,553.38,Single-ply,SBD,M
Boys,67.13,2,Everando Guerrero,Hebbronville,65.23,190.51,97.52,188.24,476.27,Single-ply,SBD,M
Boys,74.84,3,Jesus Gomez,Roma,67.31,165.56,104.33,185.97,455.86,Single-ply,SBD,M
Boys,74.84,4,Anrew Esquivel,Carrizo Springs,67.31,167.83,95.25,172.37,435.45,Single-ply,SBD,M
Boys,67.13,5,Danny Hernandez,Laredo Nixon,64.77,154.22,88.45,172.37,415.04,Single-ply,SBD,M
Boys,67.13,6,Brandon Garza,Hebbronville,63.87,122.47,81.65,176.9,381.02,Single-ply,SBD,M
Boys,67.13,7,Marc Cerda,Laredo United,67.13,120.2,81.65,161.03,362.87,Single-ply,SBD,M
Boys,74.84,8,Eden Martinez,Carrizo Springs,67.31,136.08,83.91,136.08,356.07,Single-ply,SBD,M
Boys,67.13,9,Deondre Omorayi,Carrizo Springs,63.14,117.93,63.5,138.35,319.78,Single-ply,SBD,M
Boys,67.13,10,Daniel García,Roma,65.95,113.4,70.31,127.01,310.71,Single-ply,SBD,M
Boys,67.13,11,Rafael Yanez,Roma,62.51,106.59,65.77,136.08,308.44,Single-ply,SBD,M
Boys,67.13,DQ,Alfredo Resendez,Zapata,62.6,124.74,,,,Single-ply,SBD,M
Boys,74.84,1,Josue Valdez,Zapata,72.57,224.53,124.74,224.53,573.79,Single-ply,SBD,M
Boys,74.84,2,Felipe Ramirez,Laredo Johnson,74.12,195.04,102.06,206.38,503.49,Single-ply,SBD,M
Boys,82.1,3,Edgar Trejo,Laredo United South,74.93,181.44,115.67,204.12,501.22,Single-ply,SBD,M
Boys,82.1,4,Jose Mosqueda,Laredo Cigarroa,75.02,165.56,92.99,206.38,464.93,Single-ply,SBD,M
Boys,74.84,5,Xavione Skaggs,Laredo Alexander,71.85,165.56,104.33,183.7,453.59,Single-ply,SBD,M
Boys,82.1,6,Arnold Sauceda,Hebbronville,75.02,172.37,97.52,176.9,446.79,Single-ply,SBD,M
Boys,74.84,7,Eric Estrada,Roma,72.76,158.76,113.4,172.37,444.52,Single-ply,SBD,M
Boys,74.84,8,Raul Garcia,Carrizo Springs,69.58,179.17,86.18,176.9,442.25,Single-ply,SBD,M
Boys,74.84,9,Adrian Garcia,Roma,69.49,181.44,88.45,158.76,428.64,Single-ply,SBD,M
Boys,74.84,10,Rene Ramirez,Hebbronville,74.48,140.61,90.72,174.63,405.97,Single-ply,SBD,M
Boys,74.84,11,Marcos Molina,Laredo Cigarroa,71.85,147.42,81.65,174.63,403.7,Single-ply,SBD,M
Boys,82.1,12,Jose Fuentes,Laredo United,75.02,151.95,83.91,167.83,403.7,Single-ply,SBD,M
Boys,74.84,13,Raul Cabrera,Laredo Cigarroa,73.84,136.08,86.18,154.22,376.48,Single-ply,SBD,M
Boys,74.84,14,Ray Riojas,Carrizo Springs,68.31,124.74,65.77,147.42,337.93,Single-ply,SBD,M
Boys,74.84,15,Danny DeLeon,Laredo Nixon,68.76,122.47,72.57,142.88,337.93,Single-ply,SBD,M
Boys,74.84,DQ,Bradley Mankin,Carrizo Springs,73.94,,,,,Single-ply,SBD,M
Boys,82.1,1,Joel Elizondo,Zapata,80.74,204.12,127.01,213.19,544.31,Single-ply,SBD,M
Boys,89.81,2,Daniel Briones,Laredo United South,82.28,197.31,129.27,213.19,539.77,Single-ply,SBD,M
Boys,89.81,3,Marco DeLuna,Laredo United South,82.28,204.12,129.27,201.85,535.24,Single-ply,SBD,M
Boys,82.1,4,Frank Garcia,Laredo Martin,81.19,197.31,104.33,204.12,505.76,Single-ply,SBD,M
Boys,82.1,5,Pedro Diaz,Laredo Alexander,82.1,172.37,117.93,181.44,471.74,Single-ply,SBD,M
Boys,82.1,6,Randall Hinojosa,Laredo Alexander,79.2,172.37,104.33,181.44,458.13,Single-ply,SBD,M
Boys,82.1,7,Jaime Hinojosa,Laredo Alexander,80.1,179.17,74.84,170.1,424.11,Single-ply,SBD,M
Boys,82.1,8,Randy Aguilar,Laredo Johnson,81.1,161.03,88.45,165.56,415.04,Single-ply,SBD,M
Boys,82.1,9,Jacob Garza,Hebbronville,77.93,158.76,97.52,156.49,412.77,Single-ply,SBD,M
Boys,82.1,10,Trey Guerra,Hebbronville,78.02,140.61,95.25,172.37,408.23,Single-ply,SBD,M
Boys,82.1,11,Jonathan Rodriguez #10,Laredo Nixon,81.74,154.22,83.91,170.1,408.23,Single-ply,SBD,M
Boys,82.1,12,Ricky Mena,Laredo United,82.01,113.4,97.52,174.63,385.55,Single-ply,SBD,M
Boys,82.1,13,Robert De La Vega,Laredo United,77.38,127.01,61.23,165.56,353.8,Single-ply,SBD,M
Boys,82.1,14,Norman Madrigal,Laredo Johnson,76.11,115.67,79.38,149.69,344.73,Single-ply,SBD,M
Boys,89.81,15,Nathan Ortiz,Carrizo Springs,82.19,83.91,61.23,124.74,269.89,Single-ply,SBD,M
Boys,89.81,1,Victor Ramos,Laredo United South,84.28,217.72,124.74,215.46,557.92,Single-ply,SBD,M
Boys,89.81,2,Danny Barrera,Hebbronville,84.64,190.51,133.81,190.51,514.83,Single-ply,SBD,M
Boys,89.81,3,Calvin Martinez,Carrizo Springs,84.73,161.03,102.06,167.83,430.91,Single-ply,SBD,M
Boys,89.81,4,Cecilio Garcia,Laredo Nixon,88.9,136.08,97.52,158.76,392.36,Single-ply,SBD,M
Boys,89.81,DQ,Jose Anaya,Laredo United South,88.72,201.85,133.81,,,Single-ply,SBD,M
Boys,99.79,1,Mark Duron,Laredo Martin,97.52,254.01,161.03,235.87,650.91,Single-ply,SBD,M
Boys,99.79,2,Marco Banda,Laredo Nixon,96.16,244.94,133.81,219.99,598.74,Single-ply,SBD,M
Boys,99.79,3,Max Flores,Laredo Alexander,98.16,213.19,138.35,226.8,578.33,Single-ply,SBD,M
Boys,99.79,4,Paul Gonzalez,Laredo United South,99.79,217.72,149.69,201.85,569.26,Single-ply,SBD,M
Boys,99.79,5,Isael Claudio,Laredo Cigarroa,97.89,197.31,124.74,217.72,539.77,Single-ply,SBD,M
Boys,99.79,6,Joseph Guerra,Laredo Alexander,97.98,183.7,163.29,183.7,530.7,Single-ply,SBD,M
Boys,99.79,7,Rogelio Rodriguez,Zapata,95.35,181.44,108.86,195.04,485.34,Single-ply,SBD,M
Boys,99.79,8,Frank Rossi,Hebbronville,96.07,195.04,95.25,190.51,480.81,Single-ply,SBD,M
Boys,99.79,9,Andrew Estrada,Carrizo Springs,99.16,195.04,92.99,165.56,453.59,Single-ply,SBD,M
Boys,109.77,10,Lucio Melo,Zapata,99.97,183.7,83.91,181.44,449.06,Single-ply,SBD,M
Boys,99.79,11,Valentin Palomares,Laredo Johnson,96.34,163.29,65.77,185.97,415.04,Single-ply,SBD,M
Boys,99.79,12,Jordy Velasquez,Laredo Johnson,95.25,151.95,90.72,165.56,408.23,Single-ply,SBD,M
Boys,99.79,13,Fernando Lopez,Roma,97.34,142.88,83.91,147.42,374.21,Single-ply,SBD,M
Boys,99.79,14,Ricardo Noris,Laredo Johnson,97.89,108.86,68.04,113.4,290.3,Single-ply,SBD,M
Boys,99.79,DQ,Juan Chavez,Laredo Martin,90.99,,,,,Single-ply,SBD,M
Boys,99.79,DQ,Jose Lugo,Laredo United South,91.35,183.7,90.72,,,Single-ply,SBD,M
Boys,109.77,1,Santos Alvarado,Laredo United,109.59,240.4,142.88,224.53,607.81,Single-ply,SBD,M
Boys,109.77,2,Silvestre Bustamante,Zapata,101.79,183.7,138.35,181.44,503.49,Single-ply,SBD,M
Boys,109.77,3,Victor Nenque,Laredo Nixon,106.05,199.58,113.4,190.51,503.49,Single-ply,SBD,M
Boys,109.77,4,Orlando Rodriguez,Laredo Cigarroa,101.97,174.63,104.33,210.92,489.88,Single-ply,SBD,M
Boys,109.77,5,Gabreil Martinez,Laredo Nixon,103.15,188.24,108.86,188.24,485.34,Single-ply,SBD,M
Boys,109.77,6,Jesus Lopez,Laredo Johnson,107.68,170.1,115.67,174.63,460.4,Single-ply,SBD,M
Boys,109.77,7,Robert Vargas,Hebbronville,102.78,172.37,97.52,167.83,437.72,Single-ply,SBD,M
Boys,109.77,8,Juan Gonzalez,Laredo United,107.68,165.56,97.52,172.37,435.45,Single-ply,SBD,M
Boys,109.77,9,Luis Martinez,Zapata,100.43,145.15,97.52,172.37,415.04,Single-ply,SBD,M
Boys,109.77,10,David Orosco,Carrizo Springs,102.97,149.69,108.86,140.61,399.16,Single-ply,SBD,M
Boys,109.77,11,Jorge Rodriguez,Zapata,106.32,120.2,72.57,136.08,328.85,Single-ply,SBD,M
Boys,109.77,DQ,Jose Barbarena,Laredo Nixon,103.33,165.56,97.52,,,Single-ply,SBD,M
Boys,124.74,1,Frank Moreno,Zapata,124.74,278.96,145.15,244.94,669.05,Single-ply,SBD,M
Boys,124.74,2,Elhim Hernandez,Laredo United,113.04,233.6,151.95,215.46,601.01,Single-ply,SBD,M
Boys,124.74,3,Gilbert Hernandez,Laredo Cigarroa,115.3,215.46,133.81,197.31,546.58,Single-ply,SBD,M
Boys,124.74,4,Juan Ramirez,Carrizo Springs,117.75,167.83,124.74,183.7,476.27,Single-ply,SBD,M
Boys,124.74+,5,Kike Riojas,Laredo United,124.83,183.7,113.4,165.56,462.66,Single-ply,SBD,M
Boys,124.74,6,Tino Torres,Carrizo Springs,115.58,145.15,102.06,149.69,396.89,Single-ply,SBD,M
Boys,124.74,7,Fernando Guevara,Laredo Johnson,111.31,136.08,68.04,161.03,365.14,Single-ply,SBD,M
Boys,124.74+,1,Jose Flores #2,Laredo Cigarroa,131.63,249.48,163.29,267.62,680.39,Single-ply,SBD,M
Boys,124.74+,2,Rudy Flores,Laredo United South,140.34,272.16,154.22,254.01,680.39,Single-ply,SBD,M
Boys,124.74+,3,Ruben Hinojosa,Roma,133.72,251.74,124.74,224.53,601.01,Single-ply,SBD,M
Boys,124.74+,4,Eduardo Sanchez,Zapata,138.62,240.4,147.42,213.19,601.01,Single-ply,SBD,M
Boys,124.74+,5,Manuel Navarro,Zapata,125.65,210.92,147.42,197.31,555.65,Single-ply,SBD,M
Boys,124.74+,6,Jerry Urdiales,Laredo Nixon,141.88,238.14,113.4,204.12,555.65,Single-ply,SBD,M
Boys,124.74+,7,Marcus Avila,Carrizo Springs,127.1,188.24,131.54,222.26,542.04,Single-ply,SBD,M
Boys,124.74+,8,Hector Velasquez,Laredo Johnson,140.25,156.49,92.99,183.7,433.18,Single-ply,SBD,M
Boys,124.74+,9,Omar Santos,Laredo Johnson,132.99,142.88,97.52,158.76,399.16,Single-ply,SBD,M
Boys,124.74+,DQ,Jerry Gonzalez,Laredo Nixon,126.01,217.72,120.2,,,Single-ply,SBD,M
Boys,124.74+,DQ,Mario Chavez,Carrizo Springs,163.84,149.69,,,,Single-ply,SBD,M
