Name,Sex,Event,Equipment,Division,BodyweightKg,WeightClassKg,Squat1Kg,Squat2Kg,Squat3Kg,Best3SquatKg,Bench1Kg,Bench2Kg,Bench3Kg,Best3BenchKg,Deadlift1Kg,Deadlift2Kg,Deadlift3Kg,Best3DeadliftKg,TotalKg,AgeRange,Place,State
Charlie Connor #1,F,SBD,Raw,F-C-Open,93,84+,-122.5,-122.5,-122.5,,67.5,70,75,75,155,162.5,167.5,167.5,,14-22.5,DQ,SE
Charlotte Tulloch,F,SBD,Raw,F-C-Open,59.5,63,-95,95,-100,95,45,47.5,-50,47.5,117.5,122.5,125,125,267.5,23.5-38.5,2,SE
Chloe Evans,F,SBD,Raw,F-C-Open,80.6,84,107.5,115,117.5,117.5,52.5,55,-57.5,55,117.5,125,130,130,302.5,23.5-38.5,1,SE
Emily Dodd,F,SBD,Raw,F-C-Open,58.35,63,85,90,-100,90,50,55,60,60,115,122.5,-130,122.5,272.5,14-22.5,1,SE
Emily Killick,F,SBD,Raw,F-C-Open,64.1,72,105,110,-117.5,110,45,50,-55,50,110,125,-140,125,285,14-17.5,3,SE
Florence Walton,F,SBD,Raw,F-C-Open,69.45,72,135,142.5,150,150,65,72.5,-77.5,72.5,145,152.5,157.5,157.5,380,23.5-38.5,1,SE
Katie Rusman,F,SBD,Raw,F-C-Open,52,52,70,75,82.5,82.5,35,40,-42.5,40,100,110,-120,110,232.5,14-22.5,1,SE
Sheri Miles,F,SBD,Raw,F-C-Open,71.45,72,105,115,125,125,60,65,70,70,155,165,170,170,365,23.5-38.5,2,SE
Sue Burrows-Meaney,F,SBD,Raw,F-C-Open,70.3,72,-110,120,125,125,-55,-60,-60,,125,130,135,135,,39.5-48.5,DQ,SE
Alastair Woodward,M,SBD,Raw,M-C-Open,100.5,105,-200,210,-220,210,140,147.5,155,155,240,250,260,260,625,23.5-38.5,1,SE
Alexander Kolliari-Turner,M,SBD,Raw,M-C-Open,72.8,74,140,147.5,155,155,80,85,90,90,140,147.5,155,155,400,14-22.5,2,SE
Alp Kadagan,M,SBD,Raw,M-C-Open,92.7,93,162.5,175,187.5,187.5,102.5,110,-115,110,200,220,230,230,527.5,14-22.5,5,SE
Angus Hopkins,M,SBD,Raw,M-C-Open,113.1,120,180,190,-200,190,135,-140,140,140,210,220,230,230,560,23.5-38.5,1,SE
Ben Glasscock,M,SBD,Raw,M-C-Open,103.9,105,200,215,-227.5,215,100,107.5,112.5,112.5,220,235,-250,235,562.5,14-22.5,4,SE
Ben Goodman,M,SBD,Raw,M-C-Open,80.01,83,150,157.5,162.5,162.5,100,-105,-105,100,175,185,190,190,452.5,23.5-38.5,4,SE
Ben Ayling,M,SBD,Raw,M-C-Open,85.9,93,145,155,162.5,162.5,97.5,102.5,-105,102.5,160,175,190,190,455,14-22.5,9,SE
Calum Nicholls,M,SBD,Raw,M-C-Open,136.9,120+,230,240,-250,240,187.5,195,-200,195,270,285,-295,285,720,23.5-38.5,1,SE
Chris Heath,M,SBD,Raw,M-C-Open,83.9,93,150,165,175,175,95,102.5,105,105,175,190,200,200,480,23.5-38.5,6,SE
Dan Magee,M,SBD,Raw,M-C-Open,82.45,83,180,190,-200,190,135,140,-143,140,200,205,210,210,540,14-22.5,3,SE
Daryn Clarke,M,SBD,Raw,M-C-Open,102.5,105,-205,205,210,210,120,-125,125,125,225,232.5,240,240,575,39.5-48.5,3,SE
Henry Easthope,M,SBD,Raw,M-C-Open,82.6,83,180,190,200,200,110,120,122.5,122.5,210,227.5,235,235,557.5,14-22.5,2,SE
Jack Clayton,M,SBD,Raw,M-C-Open,101.8,105,190,200,210,210,140,150,160,160,220,235,250,250,620,14-22.5,2,SE
Kristian Constantinou-Coulter,M,SBD,Raw,M-C-Open,90.45,93,190,210,-220,210,140,145,-147.5,145,200,220,230,230,585,14-15.5,2,SE
Mark Thorne,M,SBD,Raw,M-C-Open,90.4,93,200,210,220,220,122.5,-130,130,130,240,250,-257.5,250,600,23.5-38.5,1,SE
Matthew Sutton,M,SBD,Raw,M-C-Open,88.5,93,-190,190,200,200,120,125,-130,125,200,210,220,220,545,23.5-38.5,4,SE
Peter Szöke,M,SBD,Raw,M-C-Open,101.1,105,165,-175,175,175,145,160,-180,160,185,200,220,220,555,39.5-48.5,5,SE
Robert Jaye,M,SBD,Raw,M-C-Open,86.2,93,180,187.5,195,195,140,150,,150,210,225,-235,225,570,23.5-38.5,3,SE
Syed Saad Naveed,M,SBD,Raw,M-C-Open,73.2,74,130,137.5,-140,137.5,80,-85,85,85,175,185,200,200,422.5,14-22.5,1,SE
Tom Shaw,M,SBD,Raw,M-C-Open,124,120+,242.5,255,-265,255,140,145,-150,145,290,305,-320,305,705,23.5-38.5,2,SE
Tom Hamilton,M,SBD,Raw,M-C-Open,82.8,83,222.5,235,-247.5,235,142.5,-147.5,,142.5,247.5,260,272.5,272.5,650,23.5-38.5,1,SE
Tyler Jack Maher,M,SBD,Raw,M-C-Open,89.9,93,170,-180,-180,170,102.5,110,-115,110,190,200,,200,480,23.5-38.5,8,SE
Yanpei Wang,M,SBD,Raw,M-C-Open,89.7,93,165,175,-185,175,90,95,100,100,185,195,205,205,480,14-22.5,7,SE
