Division,WeightClassKg,Place,Name,Team,BodyweightKg,Best3SquatKg,Best3BenchKg,Best3DeadliftKg,TotalKg,Equipment,Event,Sex
Boys,51.71,1,Angel Barrosso,Tyler Chapel Hill,51.71,142.88,97.52,142.88,383.29,Single-ply,SBD,M
Boys,51.71,2,Tyce Johnson,Bullard,49.9,120.2,81.65,136.08,337.93,Single-ply,SBD,M
Boys,51.71,3,Steven Cantu,Brownsboro,50.89,111.13,56.7,108.86,276.69,Single-ply,SBD,M
Boys,51.71,4,Jacob Gray,Longview Pine Tree,51.71,99.79,52.16,115.67,267.62,Single-ply,SBD,M
Boys,55.79,1,BJ Stidham,Gladewater Sabine,52.34,199.58,99.79,183.7,483.08,Single-ply,SBD,M
Boys,55.79,2,Eric Reaper,Tyler Chapel Hill,55.79,181.44,113.4,181.44,476.27,Single-ply,SBD,M
Boys,55.79,3,Landon Warren,Bullard,55.79,142.88,88.45,165.56,396.89,Single-ply,SBD,M
Boys,55.79,4,Jesus Barrientos,Brownsboro,54.43,129.27,74.84,142.88,347,Single-ply,SBD,M
Boys,55.79,5,Daniel Vasquez,Athens,53.71,120.2,81.65,136.08,337.93,Single-ply,SBD,M
Boys,55.79,6,Caleb Clemmons,Athens,55.61,129.27,72.57,124.74,326.59,Single-ply,SBD,M
Boys,55.79,7,Grant White,Henderson,55.79,88.45,52.16,111.13,251.74,Single-ply,SBD,M
Boys,59.87,1,Mauro Gallegos,Gladewater Sabine,59.78,188.24,108.86,188.24,485.34,Single-ply,SBD,M
Boys,59.87,2,Tristan Larson,Tyler Chapel Hill,59.06,181.44,70.31,170.1,421.84,Single-ply,SBD,M
Boys,59.87,3,Chance Massaro,Brownsboro,59.87,167.83,83.91,145.15,396.89,Single-ply,SBD,M
Boys,59.87,4,Manuel Vasquez,Athens,57.42,142.88,92.99,145.15,381.02,Single-ply,SBD,M
Boys,59.87,5,Tyson Pierce,Henderson,57.06,106.59,61.23,124.74,292.57,Single-ply,SBD,M
Boys,59.87,6,Caden Pickard,Longview Pine Tree,56.52,92.99,56.7,117.93,267.62,Single-ply,SBD,M
Boys,67.13,1,Damion Brown,Bullard,67.13,190.51,115.67,185.97,492.15,Single-ply,SBD,M
Boys,67.13,2,Caleb Smith #8,Troup,66.68,213.19,99.79,167.83,480.81,Single-ply,SBD,M
Boys,67.13,3,Chadd Cole,Troup,66.13,179.17,99.79,183.7,462.66,Single-ply,SBD,M
Boys,67.13,4,Orran Simmons,Longview Pine Tree,66.68,170.1,111.13,174.63,455.86,Single-ply,SBD,M
Boys,67.13,5,Harley Sanders,Brownsboro,65.86,170.1,117.93,165.56,453.59,Single-ply,SBD,M
Boys,67.13,6,Julian Fierros,Longview Pine Tree,66.04,151.95,95.25,158.76,405.97,Single-ply,SBD,M
Boys,67.13,7,John Engle,Bullard,67.13,142.88,88.45,147.42,378.75,Single-ply,SBD,M
Boys,67.13,8,Sydney McElroy,Tyler Chapel Hill,66.68,142.88,97.52,133.81,374.21,Single-ply,SBD,M
Boys,67.13,9,Jonathan Escobar,Gladewater Sabine,64.41,120.2,83.91,165.56,369.68,Single-ply,SBD,M
Boys,67.13,10,Dakota Simmons,Bullard,67.04,136.08,70.31,147.42,353.8,Single-ply,SBD,M
Boys,67.13,11,Giovanni Morales,Henderson,60.51,122.47,74.84,115.67,312.98,Single-ply,SBD,M
Boys,67.13,12,Brian Vaca,Longview Spring Hill,61.51,102.06,74.84,136.08,312.98,Single-ply,SBD,M
Boys,67.13,DQ,Alec Morris,Gladewater Sabine,65.32,145.15,95.25,,,Single-ply,SBD,M
Boys,74.84,1,Michael Zuniga,Troup,74.48,217.72,120.2,185.97,523.9,Single-ply,SBD,M
Boys,74.84,2,Bryce Attaway,Troup,74.84,195.04,120.2,188.24,503.49,Single-ply,SBD,M
Boys,74.84,3,Latavian Hudson,Tyler Chapel Hill,74.84,174.63,113.4,183.7,471.74,Single-ply,SBD,M
Boys,74.84,4,Marcos Molina,Brownsboro,73.48,188.24,86.18,190.51,464.93,Single-ply,SBD,M
Boys,74.84,5,Caleb James,Longview Pine Tree,73.94,129.27,83.91,181.44,394.63,Single-ply,SBD,M
Boys,74.84,6,James Greenalch,Henderson,69.94,138.35,88.45,165.56,392.36,Single-ply,SBD,M
Boys,74.84,7,Matthew Shankles,Longview Spring Hill,70.31,142.88,79.38,149.69,371.95,Single-ply,SBD,M
Boys,74.84,8,John Cunyus,Henderson,67.59,120.2,79.38,151.95,351.53,Single-ply,SBD,M
Boys,74.84,9,Josh Gray,Athens,71.3,136.08,77.11,136.08,349.27,Single-ply,SBD,M
Boys,74.84,10,Kole Stripland,Gladewater Sabine,72.67,129.27,79.38,138.35,347,Single-ply,SBD,M
Boys,74.84,11,Jacob Waddill,Bullard,72.67,102.06,56.7,151.95,310.71,Single-ply,SBD,M
Boys,74.84,DQ,Luke Wellman,Brownsboro,71.49,179.17,104.33,,,Single-ply,SBD,M
Boys,82.1,1,Ramiro Martinez,Troup,80.01,244.94,147.42,272.16,664.51,Single-ply,SBD,M
Boys,82.1,2,Jansen Mattingly,Bullard,80.29,229.06,140.61,224.53,594.21,Single-ply,SBD,M
Boys,82.1,3,Tristan Clark,Troup,81.83,215.46,133.81,233.6,582.87,Single-ply,SBD,M
Boys,82.1,4,Eli Morris,Gladewater Sabine,79.2,204.12,131.54,206.38,542.04,Single-ply,SBD,M
Boys,82.1,5,Bobby Possey,Brownsboro,76.2,210.92,124.74,204.12,539.77,Single-ply,SBD,M
Boys,82.1,6,Reece Ricketts,Bullard,82.01,195.04,136.08,197.31,528.44,Single-ply,SBD,M
Boys,82.1,7,Keaton Hilliard,Tyler Chapel Hill,77.56,181.44,127.01,183.7,492.15,Single-ply,SBD,M
Boys,82.1,8,Oscar Gallegos,Longview Spring Hill,81.56,192.78,102.06,181.44,476.27,Single-ply,SBD,M
Boys,82.1,9,Christian Tristian,Brownsboro,77.11,172.37,88.45,181.44,442.25,Single-ply,SBD,M
Boys,82.1,10,Deaundre Heath,Longview Pine Tree,81.1,172.37,90.72,174.63,437.72,Single-ply,SBD,M
Boys,82.1,11,Carson Hester,Gladewater Sabine,82.1,149.69,95.25,151.95,396.89,Single-ply,SBD,M
Boys,82.1,12,Brenden Collins,Henderson,82.1,136.08,65.77,161.03,362.87,Single-ply,SBD,M
Boys,82.1,DQ,Cole Harkins,Henderson,81.92,156.49,,,,Single-ply,SBD,M
Boys,89.81,1,Adrian Berry,Tyler Chapel Hill,89.27,213.19,151.95,229.06,594.21,Single-ply,SBD,M
Boys,89.81,2,Zach Cooke,Henderson,83.91,226.8,142.88,222.26,591.94,Single-ply,SBD,M
Boys,89.81,3,Vaughan Bufkin,Longview Spring Hill,89.54,215.46,131.54,217.72,564.72,Single-ply,SBD,M
Boys,89.81,4,Cameron Castles,Henderson,84.19,199.58,111.13,167.83,478.54,Single-ply,SBD,M
Boys,89.81,5,Klayton House,Athens,88.63,181.44,115.67,174.63,471.74,Single-ply,SBD,M
Boys,89.81,6,Richard Matkin,Longview Spring Hill,89.54,192.78,111.13,158.76,462.66,Single-ply,SBD,M
Boys,89.81,7,Michael Marrs,Longview Spring Hill,85.73,158.76,111.13,188.24,458.13,Single-ply,SBD,M
Boys,89.81,8,Dennis Rodriguez,Athens,84.82,179.17,111.13,161.03,451.32,Single-ply,SBD,M
Boys,89.81,9,Brandon Krenek,Longview Spring Hill,89.54,158.76,92.99,149.69,401.43,Single-ply,SBD,M
Boys,89.81,10,Andrew Thomas,Henderson,88.45,124.74,79.38,147.42,351.53,Single-ply,SBD,M
Boys,99.79,1,Trent Allen,Troup,93.62,278.96,149.69,235.87,664.51,Single-ply,SBD,M
Boys,99.79,2,Marquis Massenburg,Tyler Chapel Hill,94.8,235.87,149.69,235.87,621.42,Single-ply,SBD,M
Boys,99.79,3,Coltin Paskey,Tyler Chapel Hill,99.06,231.33,136.08,199.58,566.99,Single-ply,SBD,M
Boys,99.79,4,Tony Miranda,Athens,96.25,226.8,136.08,195.04,557.92,Single-ply,SBD,M
Boys,99.79,5,Nathan Sims,Athens,90.72,238.14,90.72,213.19,542.04,Single-ply,SBD,M
Boys,99.79,6,Jay'Quan Barnett,Henderson,92.9,219.99,113.4,201.85,535.24,Single-ply,SBD,M
Boys,99.79,7,Seth Akin,Longview Pine Tree,94.17,183.7,99.79,210.92,494.42,Single-ply,SBD,M
Boys,99.79,8,Jackson Smith,Tyler Chapel Hill,97.7,172.37,99.79,192.78,464.93,Single-ply,SBD,M
Boys,99.79,9,Asher Foster,Gladewater Sabine,99.06,158.76,120.2,158.76,437.72,Single-ply,SBD,M
Boys,99.79,10,Cameron Bridges,Bullard,94.89,165.56,108.86,161.03,435.45,Single-ply,SBD,M
Boys,99.79,11,Gonzalo Rojo,Troup,98.34,179.17,95.25,158.76,433.18,Single-ply,SBD,M
Boys,99.79,12,Anthony Santa-Maria,Troup,96.16,161.03,117.93,149.69,428.64,Single-ply,SBD,M
Boys,109.77,1,Clayton Conrad,Henderson,101.79,206.38,117.93,208.65,532.97,Single-ply,SBD,M
Boys,109.77,2,Anthony Hill,Athens,105.69,181.44,113.4,210.92,505.76,Single-ply,SBD,M
Boys,109.77,3,Alexander Bearden,Longview Pine Tree,100.61,204.12,117.93,174.63,496.68,Single-ply,SBD,M
Boys,109.77,4,Jacob Kimbrough,Longview Spring Hill,106.5,192.78,97.52,188.24,478.54,Single-ply,SBD,M
Boys,109.77,5,Chris Gole,Brownsboro,109.04,183.7,92.99,174.63,451.32,Single-ply,SBD,M
Boys,109.77,6,Juan Marron,Athens,105.69,163.29,92.99,181.44,437.72,Single-ply,SBD,M
Boys,109.77,7,Blake Morse,Bullard,102.42,161.03,95.25,142.88,399.16,Single-ply,SBD,M
Boys,109.77,8,Augustine Jaimes,Troup,108.23,158.76,90.72,149.69,399.16,Single-ply,SBD,M
Boys,124.74,1,Garrett Hayes,Athens,121.56,272.16,149.69,281.23,703.07,Single-ply,SBD,M
Boys,124.74,2,Keith Burkes,Longview Pine Tree,124.74,249.48,129.27,229.06,607.81,Single-ply,SBD,M
Boys,124.74,3,Tanner Cornell,Longview Spring Hill,119.29,238.14,156.49,204.12,598.74,Single-ply,SBD,M
Boys,124.74,4,Carson Manasse,Longview Spring Hill,116.85,226.8,129.27,233.6,589.67,Single-ply,SBD,M
Boys,124.74,5,Spencer Ayers,Brownsboro,123.74,204.12,124.74,204.12,532.97,Single-ply,SBD,M
Boys,124.74,6,Roberto Miranda,Henderson,114.12,206.38,117.93,199.58,523.9,Single-ply,SBD,M
Boys,124.74,7,Michael Sutton,Tyler Chapel Hill,121.29,201.85,113.4,208.65,523.9,Single-ply,SBD,M
Boys,124.74,8,Wyatt Green,Brownsboro,119.11,188.24,111.13,188.24,487.61,Single-ply,SBD,M
Boys,124.74,9,Carson Wilborn,Bullard,110.68,185.97,97.52,172.37,455.86,Single-ply,SBD,M
Boys,124.74,DQ,Cade Blount,Longview Spring Hill,121.11,226.8,,,,Single-ply,SBD,M
Boys,124.74+,1,John Campbell,Bullard,141.25,308.44,154.22,213.19,675.85,Single-ply,SBD,M
Boys,124.74+,2,Braeden Perry,Gladewater Sabine,135.26,185.97,147.42,183.7,517.1,Single-ply,SBD,M
Boys,124.74+,3,Jacob Nichols,Henderson,159.21,174.63,111.13,167.83,453.59,Single-ply,SBD,M
Boys,124.74+,4,Tanner Hathaway,Bullard,128.37,181.44,74.84,147.42,403.7,Single-ply,SBD,M
Boys,124.74+,DQ,Malik Gilliam,Troup,165.11,294.84,,,,Single-ply,SBD,M
