﻿Ergebnisse "Offene Leverkusene Stadtmeisterschaft" im Bankdrücken, 7. Juni 2009 / Leverkusen
Klasse                                                                                         Platzierung   Name                                  Körpergew.   1. Versuch   2. Versuch   3. Versuch  Gesamtpkt.
Junioren                                                                                       1. Platz      Patrick Nowak          Leverkusen     83,5 kg      130,0 kg     135,0 kg     142,5 kg                 59,00
bis 23 Jahre                                                                                   2. Platz      Andreas Richter        Leverkusen     85,3 kg      115,0 kg     115,0 kg     120,0 kg                 29,70
Mittelgewicht -95kg                                                                            3. Platz      Henrik Güssgen         Leverkusen     85,4 kg      90,0 kg      100,0 kg     105,0 kg                 14,60
                                                                                               4. Platz      Benjamin Appel         Leverkusen     82,7 kg      80,0 kg      95,0 kg      102,5 kg                 7,30
Schwergewicht -115kg                                                                           1. Platz      Sebastian Nübel        Soest          101,7 kg     145,0 kg     155,0 kg     162,5 kg                 53,30
                                                                                               2. Platz      Jan Martini            Trier          102,1 kg     150,0 kg     150,0 kg     157,5 kg                 47,90
                                                                                               3. Platz      Yannik Kuhles          Essen          96,6 kg      135,0 kg     140,0 kg     145,0 kg                 43,40
Aktive bis 39 Jahre                                                                            1. Platz      Stefano Buttice        Krefeld        65,5 kg      100,0 kg     107,5 kg     112,5 kg                 47,00
Leichtgewicht -75kg                                                                            2. Platz      Domenico Favara        Wuppertal      70,3 kg      115,0 kg     120,0 kg     120,0 kg                 44,70
                                                                                               3. Platz      Enrah Cengizhan        Leverkusen     70,3 kg      90,0 kg      95,0 kg      95,0 kg                  24,70
Mittelgewicht -95kg                                                                            1. Platz      Cliff Opohn-Afari      Köln           93,0 kg      150,0 kg     157,5 kg     157,5 kg                 64,50
                                                                                               2. Platz      Nico Favara            Wuppertal      77,5 kg      125,0 kg     130,0 kg     135,0 kg                 52,50
                                                                                               3. Platz      Jürgen Pfohl           Köln           87,9 kg      140,0 kg     147,5 kg     147,5 kg                 52,10
                                                                                               4. Platz      Adrian Cialon          Leverkusen     89,4 kg      130,0 kg     140,0 kg     145,0 kg                 50,60
                                                                                               5. Platz      Stephan van Wichelen   Leverkusen     83,8 kg      100,0 kg     110,0 kg     115,0 kg                 31,20
Schwergewicht -115kg                                                                           1. Platz      Vitali Krenz           Moers          108,1 kg     170,0 kg     200,0 kg     215,0 kg                 91,90
                                                                                               2. Platz      Marc Galland           Mülheim        106,4 kg     170,0 kg     180,0 kg     185,0 kg                 73,60
                                                                                               3. Platz      Adrian Lindlar         Leverkusen     114,2 kg     140,0 kg     150,0 kg     165,0 kg                 50,80
Superschwergewicht +115kg                                                                      1. Platz      Sergej Moser           Stuttgart      129,3 kg     210,0 kg     220,0 kg     230,0 kg                 90,70
Masters I ab 40 Jahre
Mittelgewicht -95kg                                                                            1. Platz      Christian Lebek        Krefeld        88,5 kg      120,0 kg     135,0 kg     142,5 kg                 54,00
                                                                                               2. Platz      Baldo Bellia           Leverkusen     93,7 kg      130,0 kg     140,0 kg     145,0 kg                 46,30
                                                                                               3. Platz      Ingo Haufschildt       Leverkusen     80,0 kg      90,0 kg      100,0 kg     100,0 kg                 10,00
Superschwergewicht +115kg                                                                      1. Platz      Sergej Arent           Grevenbroich   126,9 kg     200,0 kg     220,0 kg     230,0 kg                 93,10 DR
Masters II ab 50 Jahre
Mittelgewicht -95kg                                                                            1. Platz      Bernd Daume            Leverkusen     82,1 kg      135,0 kg     145,0 kg     150,0 kg                 62,90
Masters III ab 60 Jahre
Superschwergewicht +115kg                                                                      1. Platz      Peter Schwarz          Hannover       118,0 kg     115,0 kg     125,0 kg     127,5 kg                 7,00 DR

Gesamtsieger / nach Relativpunkten, Reshel - Tabelle
Junioren:                                              Patrick Nowak   Leverkusen
Aktive:                                                Sergej Moser    Stuttgart
Masters I:                                             Sergej Arent    Grevenbroich
Masters II + III:   Bernd Daume                                        Leverkusen
