Division,WeightClassKg,Place,Name,Team,BodyweightKg,Best3SquatKg,Best3BenchKg,Best3DeadliftKg,TotalKg,Equipment,Event,Sex
Boys,51.71,1,Khyle Hailey,Tomball,48.53,77.11,49.9,106.59,233.6,Single-ply,SBD,M
Boys,55.79,DQ,Josh Jackson,Conroe The Woodlands,51.89,61.23,,,,Single-ply,SBD,M
Boys,55.79,1,Kevin O'Neal,Conroe The Woodlands,54.7,81.65,70.31,86.18,238.14,Single-ply,SBD,M
Boys,59.87,1,Max Baronaske,Tomball,57.79,124.74,83.91,156.49,365.14,Single-ply,SBD,M
Boys,59.87,2,Craig Collins,Conroe The Woodlands,59.6,124.74,70.31,124.74,319.78,Single-ply,SBD,M
Boys,59.87,3,Andrew Walker,Dayton,57.88,111.13,70.31,129.27,310.71,Single-ply,SBD,M
Boys,59.87,4,Wesley Evans,La Porte,56.88,106.59,52.16,120.2,278.96,Single-ply,SBD,M
Boys,59.87,5,JJ McDaniel,La Porte,57.52,88.45,56.7,111.13,256.28,Single-ply,SBD,M
Boys,67.13,1,Alex Newman,New Caney,66.68,140.61,92.99,147.42,381.02,Single-ply,SBD,M
Boys,67.13,2,David Reamer,New Caney,64.41,151.95,86.18,138.35,376.48,Single-ply,SBD,M
Boys,74.84,3,Juan Chavarria,New Caney,67.31,122.47,97.52,136.08,356.07,Single-ply,SBD,M
Boys,67.13,4,Richy Lyttle,New Caney,64.14,136.08,77.11,136.08,349.27,Single-ply,SBD,M
Boys,67.13,5,Kelvin Young,Channelview,66.41,124.74,79.38,142.88,347,Single-ply,SBD,M
Boys,67.13,6,Andrew Harvey,Corrigan-Camden,63.59,136.08,56.7,129.27,322.05,Single-ply,SBD,M
Boys,67.13,7,Edgar Chavarria,New Caney,61.23,90.72,77.11,120.2,288.03,Single-ply,SBD,M
Boys,67.13,8,Ricardo Ramirez,Baytown Lee,62.6,74.84,65.77,124.74,265.35,Single-ply,SBD,M
Boys,67.13,DQ,Michael McDaniel,Conroe The Woodlands,64.59,,,,,Single-ply,SBD,M
Boys,74.84,1,Race Southworth,Dickinson,74.39,174.63,81.65,161.03,417.3,Single-ply,SBD,M
Boys,74.84,2,Montez Scott,La Porte,73.66,158.76,102.06,145.15,405.97,Single-ply,SBD,M
Boys,74.84,3,Bobby Goss,Dayton,69.04,156.49,83.91,154.22,394.63,Single-ply,SBD,M
Boys,74.84,4,Mason Locke,Corrigan-Camden,74.84,147.42,72.57,147.42,367.41,Single-ply,SBD,M
Boys,82.1,5,Tony Robinson #2,Dayton,74.93,129.27,90.72,145.15,365.14,Single-ply,SBD,M
Boys,74.84,6,Ben Martinez,Corrigan-Camden,73.94,136.08,65.77,142.88,344.73,Single-ply,SBD,M
Boys,74.84,7,Trevor Morrison,Corrigan-Camden,71.49,127.01,68.04,145.15,340.19,Single-ply,SBD,M
Boys,74.84,8,Austin Terry,Conroe The Woodlands,73.57,138.35,68.04,124.74,331.12,Single-ply,SBD,M
Boys,74.84,9,Nathaniel Ozen,Dayton,69.04,127.01,58.97,142.88,328.85,Single-ply,SBD,M
Boys,74.84,10,Austen Reaves,Conroe The Woodlands,69.94,115.67,70.31,142.88,328.85,Single-ply,SBD,M
Boys,74.84,11,Trevor Cotter,Tomball,68.95,111.13,83.91,124.74,319.78,Single-ply,SBD,M
Boys,82.1,1,Charlie Cooper,Corrigan-Camden,78.29,172.37,88.45,195.04,455.86,Single-ply,SBD,M
Boys,82.1,2,Juston Kyles,Dickinson,75.66,147.42,102.06,197.31,446.79,Single-ply,SBD,M
Boys,82.1,3,Ceasar Felipe,Corrigan-Camden,79.74,151.95,70.31,156.49,378.75,Single-ply,SBD,M
Boys,82.1,4,Cameron Whilley,La Porte,80.29,158.76,92.99,106.59,358.34,Single-ply,SBD,M
Boys,82.1,5,Josh Gomez,Dickinson,76.57,120.2,102.06,120.2,342.46,Single-ply,SBD,M
Boys,82.1,6,Kyle Vance,Corrigan-Camden,78.74,124.74,61.23,124.74,310.71,Single-ply,SBD,M
Boys,82.1,7,Colin Fuchigami,Conroe The Woodlands,81.01,102.06,70.31,108.86,281.23,Single-ply,SBD,M
Boys,89.81,1,David Graham,Dayton,83.64,158.76,111.13,190.51,460.4,Single-ply,SBD,M
Boys,89.81,2,Eduardo Alcaraz,New Caney,89.81,170.1,106.59,167.83,444.52,Single-ply,SBD,M
Boys,89.81,3,Mark Love,Conroe The Woodlands,88.27,151.95,81.65,174.63,408.23,Single-ply,SBD,M
Boys,89.81,4,Charles Toussant,Dayton,86.82,163.29,79.38,158.76,401.43,Single-ply,SBD,M
Boys,99.79,1,Kenny Quintana,Channelview,95.98,192.78,113.4,190.51,496.68,Single-ply,SBD,M
Boys,99.79,2,Tyler Williams,Dayton,96.34,165.56,124.74,197.31,487.61,Single-ply,SBD,M
Boys,99.79,3,Eluid Deleon,Dayton,91.53,158.76,113.4,172.37,444.52,Single-ply,SBD,M
Boys,109.77,1,Donvontae Burrell,Corrigan-Camden,102.06,185.97,99.79,185.97,471.74,Single-ply,SBD,M
Boys,109.77,2,Grant Bonnette,Conroe The Woodlands,109.77,170.1,83.91,154.22,408.23,Single-ply,SBD,M
Boys,109.77,3,Josh Garcia #11,Baytown Lee,108.14,136.08,63.5,151.95,351.53,Single-ply,SBD,M
Boys,124.74,1,Zach Kennedy,Corrigan-Camden,124.74,238.14,111.13,183.7,532.97,Single-ply,SBD,M
Boys,124.74,2,Matthew Oubre,Dayton,118.3,183.7,124.74,204.12,512.56,Single-ply,SBD,M
Boys,124.74,3,Coy Brown,Corrigan-Camden,111.31,195.04,102.06,179.17,476.27,Single-ply,SBD,M
Boys,124.74,4,Ivan Estipona,New Caney,113.4,195.04,88.45,190.51,474,Single-ply,SBD,M
Boys,124.74,5,Raymond Hillhouse,Dayton,116.66,181.44,102.06,183.7,467.2,Single-ply,SBD,M
Boys,124.74,6,Corey Lee,La Porte,116.21,183.7,92.99,172.37,449.06,Single-ply,SBD,M
Boys,124.74,7,Tim Silva,Conroe The Woodlands,111.77,120.2,68.04,136.08,324.32,Single-ply,SBD,M
Boys,124.74,DQ,Josh Contreras,Baytown Lee,120.56,106.59,,,,Single-ply,SBD,M
Boys,124.74+,1,Maurice Morris,La Porte,168.46,226.8,120.2,204.12,551.11,Single-ply,SBD,M
Boys,124.74+,2,Mark Poteat,Conroe The Woodlands,140.8,181.44,92.99,170.1,444.52,Single-ply,SBD,M
Boys,124.74+,DQ,Zach Hamilton,La Porte,141.7,,,,,Single-ply,SBD,M
