Place,WeightClassKg,Name,State,Sex,BodyweightKg,Best3SquatKg,Best3BenchKg,Best3DeadliftKg,TotalKg,Division,Event,Equipment
1,90,Rick Cyman,IN,M,88.45,,182.5,,182.5,bpm1,B,Raw
1,90,Rick Cyman,IN,M,88.45,,182.5,,182.5,bppure,B,Raw
1,100,Rickie Payne,IN,M,98.88,,165,,165,bpint,B,Raw
1,82.5,Thomas Scott,IN,M,79.92,,122.5,,122.5,bpjr,B,Raw
1,100,Joe McDonald,IN,M,95.57,,147.5,,147.5,bpm3,B,Raw
1,75,David Stringham,IN,M,74.57,,120,,120,bpsm2,B,Raw
1,110,J.C. Crumedy,IN,M,100.83,,137.5,,137.5,bpm2,B,Raw
1,100,Alan Hinders,IN,M,97.57,,130,,130,bpsm1,B,Raw
1,110,Larry Hughes,IN,M,109.86,,110,,110,bpm3,B,Raw
1,90,Amanda Gooch,IN,F,88.04,192.5,102.5,205,500,wopen,SBD,Wraps
1,90,Brandi Inez Sneed,IN,F,89.09,152.5,87.5,175,415,wnov,SBD,Wraps
2,90,Brandi Inez Sneed,IN,F,89.09,152.5,87.5,175,415,wopen,SBD,Wraps
1,90,Brandi Inez Sneed,IN,F,89.09,152.5,87.5,175,415,wpure,SBD,Wraps
1,90,Brandi Inez Sneed,IN,F,89.09,152.5,87.5,175,415,wsm1,SBD,Wraps
1,56,Mariah Copeland,IN,F,55.16,110,47.5,135,292.5,wjr,SBD,Wraps
1,56,Karissa Hyatt,IN,F,54.29,97.5,55,112.5,265,wint,SBD,Wraps
1,90+,Misty Mercer,IN,F,93.94,115,62.5,145,322.5,wsm1,SBD,Wraps
1,90+,Herlinda Teach,IN,F,90.08,112.5,47.5,135,295,wm2,SBD,Wraps
1,100,Nathan Gooch,IN,M,98.16,227.5,187.5,275,690,m1,SBD,Wraps
1,100,Bradley Boswell,IN,M,99.79,217.5,185,272.5,675,jr,SBD,Wraps
1,90,Robert Lantis,IN,M,86.5,220,132.5,262.5,615,int,SBD,Wraps
1,82.5,Chris Willis,IN,M,80.97,192.5,127.5,237.5,557.5,jr,SBD,Wraps
1,90,Austin Becker,IN,M,85.37,212.5,117.5,220,550,hs,SBD,Wraps
1,100,Alan Hinders,IN,M,97.57,222.5,130,230,582.5,sm1,SBD,Wraps
1,90,Jon Cook,IN,M,88.95,192.5,130,227.5,550,m1,SBD,Wraps
1,110,Cheyenne Battreal,IN,M,104.14,237.5,137.5,215,590,jr,SBD,Wraps
1,110,Eric Walden,IN,M,105.69,190,160,227.5,577.5,nov,SBD,Wraps
1,100,Derek Rhoads,IN,M,94.8,160,162.5,205,527.5,retroint,SBD,Raw
1,125,Matt Woeber,OH,M,122.74,205,155,232.5,592.5,p+f,SBD,Wraps
1,75,Paul Hyatt,IN,M,73.35,155,87.5,215,457.5,int,SBD,Wraps
1,110,Ed Thompson,IN,M,109.81,205,142.5,212.5,560,sm2,SBD,Wraps
1,90,Vikrant Singh,IN,M,84.87,165,132.5,192.5,490,sm2,SBD,Wraps
1,67.5,Cody Gronkiewicz,IN,M,61.92,140,85,182.5,407.5,hs,SBD,Wraps
1,67.5,Cody Gronkiewicz,IN,M,61.92,140,85,182.5,407.5,teen,SBD,Wraps
1,67.5,Daniel Martinez #12,IN,M,64.77,157.5,82.5,172.5,412.5,open,SBD,Wraps
2,100,Jeremy Muchland,IN,M,99.29,172.5,122.5,215,510,m1,SBD,Wraps
1,100,Steve Spidell,IN,M,93.53,190,102.5,202.5,495,m2,SBD,Wraps
2,90,James Riley,IL,M,88.36,160,107.5,205,472.5,hs,SBD,Wraps
1,75,Brandon Cross,IN,M,73.26,132.5,115,180,427.5,m1,SBD,Wraps
1,82.5,Dallas Snell,IN,M,79.7,165,82.5,197.5,445,teen,SBD,Wraps
1,110,Caleb Perry,IN,M,107.37,152.5,125,227.5,505,retrosm1,SBD,Raw
1,67.5,Nikhil Bhagat,IN,M,67.18,132.5,87.5,165,385,int,SBD,Wraps
1,67.5,Nikhil Bhagat,IN,M,67.18,132.5,87.5,165,385,nov,SBD,Wraps
1,82.5,Kyle Pott,IN,M,82.19,132.5,107.5,190,430,smp,SBD,Wraps
2,67.5,Tim Artz,OH,M,67.22,122.5,57.5,162.5,342.5,teen,SBD,Wraps
1,75,Stephen Snyder,OH,M,72.48,107.5,110,137.5,355,sm2,SBD,Wraps
2,67.5,Brady Turner,IN,M,67,115,62.5,160,337.5,hs,SBD,Wraps
3,67.5,Alex Gronkiewicz,IN,M,61.01,95,65,145,305,hs,SBD,Wraps
3,67.5,Alex Gronkiewicz,IN,M,61.01,95,65,145,305,teen,SBD,Wraps
1,110,Larry Hughes,IN,M,109.86,100,110,140,350,m3,SBD,Wraps
DQ,82.5,Thomas Scott,IN,M,79.92,125,122.5,,,jr,SBD,Wraps
1,82.5,Kyle Pott,IN,M,82.19,,107.5,,107.5,sm1,B,Raw
1,90,James Riley,IL,M,88.36,,107.5,,107.5,hs,B,Raw
1,90,Brad Bonnell,IN,M,89.36,,100,195,295,m1,BD,Single-ply
1,75,Ian Pool,IN,M,72.17,,132.5,185,317.5,jr,BD,Raw
1,140+,Jeff Krause #1,IN,M,168.1,,185,237.5,422.5,mp,BD,Raw
1,110,Barry Donovan,IN,M,107.59,,97.5,225,322.5,m4,BD,Raw
1,125,Richard Chambers,IN,M,111.63,,192.5,237.5,430,m1,BD,Raw
1,90,Rick Cyman,IN,M,88.45,,182.5,182.5,365,pure,BD,Raw
1,100,Derek Rhoads,IN,M,94.8,,162.5,205,367.5,int,BD,Raw
1,75,David Stringham,IN,M,74.57,,120,150,270,sm2,BD,Raw
1,110,David Hughes #2,IN,M,106.73,,,185,185,m2,D,Raw
1,82.5,Forest Riley,IL,M,82.19,,45,80,125,hs,BD,Raw
1,100,Joe McDonald,IN,M,95.57,,135,,135,m3,B,Raw
