Name,Division,Equipment,WeightClassKg,BodyweightKg,Event,Best3SquatKg,Best3BenchKg,Best3DeadliftKg,TotalKg,Sex,BirthDate,Place,Age
Erik Heitter,Masters 45-49,Raw,110,102.51,B,,183.7,,183.7,M,,1,
Erik Heitter,Masters 45-49,Raw,110,102.51,SBD,61.23,183.7,226.8,471.74,M,,1,
Erik Heitter,Masters 45-49,Raw,110,102.51,BD,,183.7,226.8,410.5,M,,1,
Mike McIntosh,Submasters,Wraps,140+,172.82,SBD,317.51,215.46,265.35,798.32,M,,1,
Jeremy Helms,Submasters,Raw,140,131.36,SBD,260.82,192.78,294.84,748.43,M,,1,
Mike McIntosh,Open,Wraps,140+,172.82,SBD,317.51,215.46,265.35,798.32,M,,1,
Jeremy Helms,Open,Raw,140,131.36,SBD,260.82,192.78,294.84,748.43,M,,1,
John Adkins #1,Open,Multi-ply,140,130.73,SBD,381.02,238.14,317.51,936.67,M,,1,
Allen Fisher #1,Open,Single-ply,110,104.96,SBD,324.32,192.78,317.51,834.61,M,,1,
Timothy Shea,Masters 40-44,Wraps,140,137.89,SBD,299.37,204.12,290.3,793.79,M,,1,
Trenton Owl,Open,Wraps,125,122.11,SBD,204.12,133.81,240.4,578.33,M,,1,
Blake Gandy,Open,Raw,90,88.81,SBD,197.31,131.54,251.74,580.6,M,,2,
Ryan Osborne,Submasters,Raw,118,112.49,B,,204.12,,204.12,M,,1,
Ryan Osborne,Submasters,Raw,118,112.49,D,,,294.84,294.84,M,,1,
Ryan Osborne,Submasters,Wraps,118,112.49,SBD,283.5,204.12,294.84,782.45,M,,1,
Ryan Osborne,Submasters,Raw,118,112.49,BD,,192.78,294.84,487.61,M,,1,
Dylan Samples,Open,Raw,90,89.72,SBD,210.92,149.69,244.94,605.55,M,,1,
Preston Turner,Open,Raw,125,124.74,SBD,288.03,188.24,290.3,766.57,M,,1,
Frank Phillips #1,Open,Multi-ply,125,123.01,SBD,365.14,260.82,281.23,907.18,M,,1,
Frank Phillips #1,Masters 50-54,Multi-ply,125,123.01,SBD,365.14,260.82,281.23,907.18,M,,1,
Joe Vayda,Masters 50-54,Raw,110,106.5,B,,165.56,,165.56,M,,1,
Joe Vayda,Masters 50-54,Raw,110,106.5,D,,,244.94,244.94,M,,1,
Joe Vayda,Masters 50-54,Raw,110,106.5,BD,,165.56,244.94,410.5,M,,1,
Marcus Cheaney,Open,Wraps,75,73.84,SBD,120.2,92.99,142.88,356.07,M,,1,
Quintarius Chapman,Open,Wraps,82.5,79.02,SBD,267.62,172.37,312.98,752.96,M,,1,
Darren Price,Open,Raw,100,96.71,B,,183.7,,183.7,M,,1,25
Darren Price,Open,Raw,100,96.71,SBD,260.82,183.7,265.35,709.87,M,,1,25
Daniel Mix,Masters 40-44,Raw,118,117.12,SBD,260.82,170.1,249.48,680.39,M,,1,
Greg Hinds,Masters 45-49,Raw,110,108.05,SBD,229.06,158.76,249.48,637.3,M,,1,
Steven Terry,Submasters,Raw,100,98.97,SBD,247.21,165.56,240.4,653.17,M,,1,
Franklin McCoy,Open,Wraps,82.5,81.19,SBD,263.08,170.1,247.21,680.39,M,,2,
Elijah Noe,Teenage 16-17,Wraps,118,117.71,SBD,226.8,136.08,247.21,610.08,M,,1,
Johann Manrique,Open,Raw,100,96.71,SBD,213.19,145.15,272.16,630.49,M,,2,
Michael Cantrell,Masters 65-69,Wraps,110,109.13,SBD,145.15,113.4,147.42,405.97,M,,1,
Evelyn Cole,Masters 45-49,Raw,67.5,67.13,SBD,72.57,49.9,81.65,204.12,F,,1,
Isaac McMurray,Teenage 16-17,Wraps,67.5,62.14,SBD,136.08,74.84,158.76,369.68,M,,1,
Daniel J Mix,Teenage 13-15,Raw,75,69.22,SBD,129.27,77.11,136.08,342.46,M,,1,
Jamila Meccariello,Open,Raw,60,57.15,SBD,104.33,49.9,131.54,285.76,F,,1,
Nevaeh McIntosh,Pre-Teen,Wraps,82.5,82.28,SBD,106.59,52.16,102.06,260.82,F,,1,
Brittany Lauper,Submasters,Raw,90+,148.23,SBD,113.4,77.11,97.52,288.03,F,,1,
Dezman Crow,Open,Wraps,100,94.26,SBD,235.87,149.69,244.94,630.49,M,,1,
Shawn Campbell #1,Masters 40-44,Raw,125,123.29,SBD,306.17,229.06,249.48,784.71,M,,1,
Shawn Campbell #1,Open,Raw,125,123.29,SBD,306.17,229.06,249.48,784.71,M,,1,
Earl Turner,Submasters,Raw,140,138.8,BD,,136.08,249.48,385.55,M,,1,
Carolyn Dickson,Open,Raw,67.5,65.5,SBD,113.4,83.91,138.35,335.66,F,,1,
Carolyn Dickson,Masters 55-59,Raw,67.5,65.5,SBD,113.4,83.91,138.35,335.66,F,,1,
Olivia Shanks,Open,Wraps,75,74.03,SBD,129.27,68.04,163.29,360.61,F,,1,
Riley Long,Teenage 16-17,Wraps,110,105.87,SBD,226.8,122.47,226.8,576.06,M,,1,
Hunter Frazier,Teenage 18-19,Raw,90,89.81,SBD,185.97,115.67,197.31,498.95,M,,1,
Rusty North,Masters 45-49,Raw,90,89.09,B,,111.13,,111.13,M,,1,
Rusty North,Masters 45-49,Raw,90,89.09,D,,,197.31,197.31,M,,1,
Rusty North,Masters 45-49,Wraps,90,89.09,SBD,215.46,111.13,197.31,523.9,M,,1,
Rusty North,Masters 45-49,Raw,90,89.09,BD,,111.13,197.31,308.44,M,,1,
Rusty North,Masters 45-49,Wraps,90,89.09,S,195.95,,,195.95,M,,1,
Benita Hudson,Submasters,Multi-ply,75,75,SBD,215.46,124.74,197.31,537.51,F,,1,
Jacob Ricketts,Open,Raw,140+,176.36,SBD,204.12,117.93,201.85,523.9,M,,2,
Roman Weaver,Teenage 16-17,Wraps,90,87.54,SBD,233.6,140.61,238.14,612.35,M,,1,
Russell Peterson,Open,Wraps,110,103.24,SBD,249.48,179.17,231.33,659.98,M,,1,
Johnny Holder,Open,Raw,100,99.11,SBD,263.08,170.1,256.28,689.46,M,,1,
Johnny Holder,Submasters,Raw,100,99.11,SBD,263.08,170.1,256.28,689.46,M,,1,
Clain Trekell,Open,Raw,118,114.89,SBD,226.8,192.78,260.82,680.39,M,,1,
Stephanie Cochran,Teenage 16-17,Raw,67.5,63.87,B,,54.43,,54.43,F,,1,
Stephanie Cochran,Teenage 16-17,Wraps,67.5,63.87,SBD,65.77,54.43,97.52,217.72,F,,1,
Trevor Miller #3,Open,Single-ply,82.5,81.65,SBD,222.26,102.06,176.9,501.22,M,,1,
Trevor Miller #3,Teenage 13-15,Single-ply,82.5,81.65,SBD,222.26,102.06,176.9,501.22,M,,1,
Tommy Haun,Open,Raw,140+,163.29,SBD,213.19,129.27,226.8,569.26,M,,1,
Alec Mack,Teenage 18-19,Wraps,75,73.84,SBD,215.46,124.74,233.6,573.79,M,,1,
Clinton Gross,Juniors,Raw,118,115.76,SBD,226.8,165.56,226.8,619.15,M,,1,
Chris Jividen,Open,Multi-ply,100,98.61,SBD,317.51,310.71,324.32,952.54,M,,1,
Bryce Moore,Juniors,Wraps,140+,159.21,SBD,308.44,192.78,226.8,728.02,M,,1,
Bryce Moore,Open,Wraps,140+,159.21,SBD,308.44,192.78,226.8,728.02,M,,1,
Bryce Moore,Police and Fire,Wraps,140+,159.21,SBD,308.44,192.78,226.8,728.02,M,,1,
Jabrandis Stroud,Open,Wraps,125,124.01,SBD,260.82,206.38,244.94,712.14,M,,1,
Jabrandis Stroud,Police and Fire,Wraps,125,124.01,SBD,260.82,206.38,244.94,712.14,M,,1,
Jabrandis Stroud,Submasters,Wraps,125,124.01,SBD,260.82,206.38,244.94,712.14,M,,1,
Matthew Warr,Masters 40-44,Single-ply,110,102.78,SBD,335.66,201.85,249.48,786.98,M,,1,
Jake Stafko,Open,Multi-ply,90,89.36,SBD,306.17,206.38,251.74,764.3,M,,1,
Ben Mathews,Submasters,Wraps,125,119.84,SBD,288.03,210.92,317.51,816.47,M,,1,
Reed Hughes,Juniors,Raw,110,102.97,SBD,251.74,149.69,258.55,659.98,M,,1,
Lane Vayda,Teenage 16-17,Raw,82.5,79.29,B,,92.99,,92.99,M,,1,
Lane Vayda,Teenage 16-17,Raw,82.5,79.29,D,,,199.58,199.58,M,,1,
Lane Vayda,Teenage 16-17,Wraps,82.5,79.29,SBD,204.12,92.99,199.58,496.68,M,,1,
Lane Vayda,Teenage 16-17,Raw,82.5,79.29,BD,,92.99,199.58,292.57,M,,1,
Lane Vayda,Teenage 16-17,Wraps,82.5,79.29,S,204.12,,,204.12,M,,1,
Russ Hatcher,Masters 55-59,Raw,118,115.21,SBD,170.1,145.15,204.12,519.36,M,,1,
Eric Rowland,Open,Raw,110,108.86,SBD,181.44,122.47,217.72,521.63,M,,1,
Brayden Cornett,Teenage 13-15,Raw,90,88.99,SBD,174.63,124.74,226.8,526.17,M,,1,
Austin Munsey,Teenage 13-15,Wraps,110,106.05,SBD,183.7,104.33,165.56,453.59,M,,1,
Mekia Hickman,Open,Wraps,90,90,SBD,142.88,72.57,163.29,378.75,F,,1,
Ricky Davis,Juniors,Raw,82.5,80.83,SBD,149.69,99.79,185.97,435.45,M,,1,
Cole Morgan,Open,Raw,118,116.39,SBD,240.4,174.63,267.62,682.66,M,,1,
Tim Metcalf,Masters 60-64,Raw,82.5,81.83,B,,102.06,,102.06,M,,1,
Tim Metcalf,Masters 60-64,Raw,82.5,81.83,D,,,145.15,145.15,M,,1,
Hook Hill,Masters 55-59,Raw,48,46.9,B,,20.41,,20.41,F,,1,
Hook Hill,Masters 55-59,Raw,48,46.9,D,,,65.77,65.77,F,,1,
Hook Hill,Masters 55-59,Raw,48,46.9,BD,,20.41,65.77,86.18,F,,1,
Walker Tarvin,Teenage 16-17,Raw,90,,BD,,77.11,140.61,217.72,M,,1,
Jathan Mays,Teenage 16-17,Raw,140,128.19,BD,,111.13,183.7,294.84,M,,1,
Caleb Green,Teenage 16-17,Raw,118,117.48,BD,,122.47,199.58,322.05,M,,1,
AJ Gant,Teenage 16-17,Raw,125,119.75,B,,113.4,,113.4,M,,1,
AJ Gant,Teenage 16-17,Raw,125,119.75,BD,,113.4,217.72,331.12,M,,1,
Cory LaFallette,Open,Raw,90,85.64,BD,,108.86,170.1,278.96,M,,1,
Dakota Burchfield,Juniors,Raw,110,105.69,BD,,138.35,208.65,347,M,,1,
John Howe,Masters 55-59,Raw,125,121.93,B,,174.63,,174.63,M,,1,
John Howe,Masters 55-59,Raw,125,121.93,D,,,254.01,254.01,M,,1,
Chris Marsh,Submasters,Raw,140+,152.77,BD,,219.99,249.48,469.47,M,,1,
Samuel McMahan,Masters 45-49,Raw,118,115.39,BD,,204.12,240.4,444.52,M,,1,
Kevin Dukes,Masters 50-54,Raw,140,139.34,BD,,254.01,226.8,480.81,M,,1,
Willie Ponders,Open,Raw,125,119.39,BD,,229.06,285.76,514.83,M,,1,
Willie Ponders,Submasters,Raw,125,119.39,BD,,229.06,285.76,514.83,M,,1,
Austin Thompson,Masters 60-64,Raw,110,102.78,B,,154.22,,154.22,M,,1,
Katie Cochran,Submasters,Raw,110,106.05,B,,54.43,,54.43,F,,1,
Ally Langford,Open,Raw,100,94.08,B,,70.31,,70.31,F,,1,
Leonard Bryson,Grand-Masters,Raw,67.5,67.13,B,,72.57,,72.57,M,,1,
Darrin Webb,Masters 55-59,Raw,100,99.06,B,,161.03,,161.03,M,,1,
Melody Watson,Open,Raw,75,72.85,B,,79.38,,79.38,F,,1,
Chaz Davis,Masters 40-44,Raw,110,,B,,151.95,,151.95,M,,2,
Josh Dover,Open,Raw,100,93.53,B,,154.22,,154.22,M,,2,
Kevin Langford,Open,Raw,82.5,79.74,B,,145.15,,145.15,M,,1,
Levi Hunter,Open,Multi-ply,110,109.77,B,,233.6,,233.6,M,,1,
Travis Cochran,Open,Raw,140,129.09,B,,240.4,,240.4,M,,1,
Ben Weisfeld,Masters 40-44,Unlimited,90,89.81,B,,208.65,,208.65,M,,1,
Terry Gant,Masters 50-54,Unlimited,140+,161.48,B,,165.56,,165.56,M,,1,
Terry Gant,Masters 50-54,Unlimited,140+,161.48,BD,,136.08,195.04,331.12,M,,1,
Olivia Mathews,Teenage 13-15,Raw,60,58.51,BD,,34.02,70.31,104.33,F,,1,
Brandon Franklin,Open,Raw,110,104.87,D,,,317.51,317.51,M,,1,
