Division,WeightClassKg,Place,Name,Team,BodyweightKg,Best3SquatKg,Best3BenchKg,Best3DeadliftKg,TotalKg,Equipment,Event,Sex
Girls,44.23,1,Tracy Escamilla,Rio Hondo,43.73,124.74,65.77,142.88,333.39,Single-ply,SBD,F
Girls,44.23,2,Kassy Zamorano,Los Fresnos,43.91,124.74,70.31,129.27,324.32,Single-ply,SBD,F
Girls,44.23,3,Klarissa Gonzalez,San Benito,44.09,108.86,54.43,115.67,278.96,Single-ply,SBD,F
Girls,44.23,4,Dani Burget,Weslaco East,43,108.86,49.9,117.93,276.69,Single-ply,SBD,F
Girls,44.23,5,Briseida Montoya,San Benito,43.09,102.06,56.7,106.59,265.35,Single-ply,SBD,F
Girls,44.23,6,Sarah Gonzales,San Benito,43.54,79.38,43.09,102.06,224.53,Single-ply,SBD,F
Girls,44.23,7,Alyssa Vega,Rio Hondo,41.73,61.23,29.48,81.65,172.37,Single-ply,SBD,F
Girls,44.23,8,Itali Escamilla,Brownsville Pace,44.09,56.7,29.48,83.91,170.1,Single-ply,SBD,F
Girls,44.23,9,Valeria Carlos,Brownsville Veterans Memorial,40.46,61.23,29.48,74.84,165.56,Single-ply,SBD,F
Girls,44.23,10,Savannah Maldonado,Weslaco,43.27,40.82,31.75,74.84,147.42,Single-ply,SBD,F
Girls,44.23,DQ,Analisa Razo,Pharr Valley View,43.18,,,,,Single-ply,SBD,F
Girls,47.85,1,Sam Machuca,San Benito,46.27,149.69,72.57,149.69,371.95,Single-ply,SBD,F
Girls,47.85,2,Ashley Garay,Los Fresnos,47.54,163.29,61.23,131.54,356.07,Single-ply,SBD,F
Girls,47.85,3,Emilie Martinez,Weslaco,47.63,104.33,47.63,117.93,269.89,Single-ply,SBD,F
Girls,47.85,4,Arantza Santisteban,Brownsville Veterans Memorial,45.81,90.72,43.09,122.47,256.28,Single-ply,SBD,F
Girls,47.85,5,Gema Hernandez,Brownsville Pace,46.45,95.25,40.82,120.2,256.28,Single-ply,SBD,F
Girls,47.85,6,Linda Vargas,Pharr Valley View,47.63,97.52,58.97,99.79,256.28,Single-ply,SBD,F
Girls,47.85,7,Rebecca Acevedo,Rio Hondo,47.26,95.25,43.09,97.52,235.87,Single-ply,SBD,F
Girls,47.85,8,Alma Zamora,Brownsville Porter,45.99,81.65,27.22,95.25,204.12,Single-ply,SBD,F
Girls,47.85,9,Dora Lee Turner,Port Isabel,44.91,20.41,22.68,54.43,97.52,Single-ply,SBD,F
Girls,51.94,1,Alle Elizondo,Los Fresnos,51.3,120.2,72.57,142.88,335.66,Single-ply,SBD,F
Girls,51.94,2,Gabby Rios,Weslaco East,50.98,138.35,63.5,127.01,328.85,Single-ply,SBD,F
Girls,51.94,3,Jazmine Serrano,Weslaco East,50.53,117.93,54.43,136.08,308.44,Single-ply,SBD,F
Girls,51.94,4,Sarah Moraida,Brownsville Pace,51.71,122.47,61.23,115.67,299.37,Single-ply,SBD,F
Girls,51.94,5,Janie Ramos,Weslaco East,50.8,124.74,49.9,113.4,288.03,Single-ply,SBD,F
Girls,51.94,6,Nicole Brown #1,Los Fresnos,51.85,124.74,52.16,111.13,288.03,Single-ply,SBD,F
Girls,51.94,7,Ene Castillo,Brownsville Hanna,51.44,97.52,36.29,115.67,249.48,Single-ply,SBD,F
Girls,51.94,8,Lydia Ybarra,Weslaco,50.44,77.11,38.56,92.99,208.65,Single-ply,SBD,F
Girls,51.94,9,Alma Martinez,Raymondville,49.44,72.57,38.56,92.99,204.12,Single-ply,SBD,F
Girls,51.94,10,Melissa Vega,Brownsville Lopez,50.35,81.65,40.82,72.57,195.04,Single-ply,SBD,F
Girls,51.94,11,Monica Barbosa,Brownsville Veterans Memorial,50.8,65.77,27.22,102.06,195.04,Single-ply,SBD,F
Girls,51.94,12,Hannah Waddell,Port Isabel,51.71,61.23,34.02,77.11,172.37,Single-ply,SBD,F
Girls,51.94,13,Nadia Olivarez,La Feria,51.71,52.16,20.41,83.91,156.49,Single-ply,SBD,F
Girls,51.94,DQ,Clarissa Molina,Pharr Valley View,51.44,,,,,Single-ply,SBD,F
Girls,51.94,DQ,Brittany Garcia,Mercedes,50.8,,,,,Single-ply,SBD,F
Girls,56.02,1,Doris Gutierrez,Weslaco East,55.52,151.95,65.77,151.95,369.68,Single-ply,SBD,F
Girls,56.02,2,Winona Garza,Port Isabel,54.98,129.27,61.23,145.15,335.66,Single-ply,SBD,F
Girls,56.02,3,Kristan Cazares,Weslaco East,55.34,136.08,56.7,124.74,317.51,Single-ply,SBD,F
Girls,56.02,4,Byanka Arreola,Los Fresnos,54.3,120.2,49.9,136.08,306.17,Single-ply,SBD,F
Girls,56.02,5,Kristian Martinez #1,San Benito,55.52,99.79,63.5,131.54,294.84,Single-ply,SBD,F
Girls,56.02,6,Alyza Lomas,Edcouch-Elsa,55.79,120.2,54.43,120.2,294.84,Single-ply,SBD,F
Girls,56.02,7,Rebekah Medieros,Rio Hondo,53.52,106.59,45.36,102.06,254.01,Single-ply,SBD,F
Girls,56.02,8,Aracely Rodriguez,Pharr Valley View,53.98,111.13,45.36,97.52,254.01,Single-ply,SBD,F
Girls,56.02,9,Daniela Valles,Brownsville Lopez,55.79,72.57,47.63,104.33,224.53,Single-ply,SBD,F
Girls,56.02,10,Jessica Gutierrez,Brownsville Porter,55.34,102.06,34.02,86.18,222.26,Single-ply,SBD,F
Girls,56.02,11,Damiane Hernandez,La Feria,52.62,74.84,43.09,102.06,219.99,Single-ply,SBD,F
Girls,56.02,12,Joanna Rodriguez,Brownsville Pace,55.34,70.31,29.48,92.99,192.78,Single-ply,SBD,F
Girls,56.02,13,Vanessa Valle,Brownsville Veterans Memorial,53.98,56.7,38.56,90.72,185.97,Single-ply,SBD,F
Girls,56.02,DQ,Desirae Pineda,Brownsville Hanna,54.61,,,,,Single-ply,SBD,F
Girls,56.02,DQ,Monique Garza,Edcouch-Elsa,55.02,,,,,Single-ply,SBD,F
Girls,56.02,DQ,Lorissa Medina,Pharr Valley View,55.97,,,,,Single-ply,SBD,F
Girls,60.1,1,Crystal Olivarez,Rio Hondo,58.06,156.49,83.91,165.56,405.97,Single-ply,SBD,F
Girls,60.1,2,Karina Garcia,San Benito,59.42,154.22,70.31,158.76,383.29,Single-ply,SBD,F
Girls,60.1,3,Kathy Gonzalez,Weslaco East,59.15,149.69,61.23,140.61,351.53,Single-ply,SBD,F
Girls,60.1,4,Iridian Toledo,Port Isabel,56.88,104.33,52.16,120.2,276.69,Single-ply,SBD,F
Girls,60.1,5,Briana Acevedo,Rio Hondo,58.97,111.13,43.09,122.47,276.69,Single-ply,SBD,F
Girls,60.1,6,Elizabeth Moreno,Raymondville,58.6,102.06,49.9,115.67,267.62,Single-ply,SBD,F
Girls,60.1,7,Julissa Mondragon,Port Isabel,56.7,106.59,47.63,97.52,251.74,Single-ply,SBD,F
Girls,60.1,8,Xylin Sanchez,Weslaco,58.51,104.33,43.09,97.52,244.94,Single-ply,SBD,F
Girls,60.1,9,Alexis Martinez #5,La Feria,56.25,83.91,38.56,106.59,229.06,Single-ply,SBD,F
Girls,60.1,10,Kassandra Fraga,Brownsville Pace,56.7,79.38,40.82,83.91,204.12,Single-ply,SBD,F
Girls,60.1,11,Jennifer Olivarez,Brownsville Veterans Memorial,57.24,65.77,34.02,83.91,183.7,Single-ply,SBD,F
Girls,60.1,DQ,Devany Delgado,Edcouch-Elsa,60.06,,,,,Single-ply,SBD,F
Girls,60.1,DQ,Glinda Lopez,Pharr Valley View,58.97,106.59,,,,Single-ply,SBD,F
Girls,60.1,DQ,Vanessa Montez,Mercedes,56.34,77.11,38.56,,,Single-ply,SBD,F
Girls,60.1,DQ,Emily Gomez,Pharr Valley View,59.6,129.27,43.09,97.52,,Single-ply,SBD,F
Girls,67.36,1,Mayte Escalante,Weslaco East,60.78,138.35,63.5,136.08,337.93,Single-ply,SBD,F
Girls,67.36,2,Cassandra Cortinas,San Benito,60.19,127.01,65.77,140.61,333.39,Single-ply,SBD,F
Girls,67.36,3,Maritza De La Fuente,Weslaco East,66.22,136.08,72.57,124.74,333.39,Single-ply,SBD,F
Girls,67.36,4,Roseanna Villarreal,Los Fresnos,66.45,122.47,61.23,145.15,328.85,Single-ply,SBD,F
Girls,67.36,5,Kat Ramirez,Los Fresnos,66.54,122.47,74.84,124.74,322.05,Single-ply,SBD,F
Girls,67.36,6,Nat Lopez,Brownsville Porter,65.32,129.27,52.16,124.74,306.17,Single-ply,SBD,F
Girls,67.36,7,Ashlynn Marchan,Brownsville Pace,65.95,117.93,52.16,117.93,288.03,Single-ply,SBD,F
Girls,67.36,8,RayAnn Crum,La Feria,64.05,104.33,47.63,122.47,274.42,Single-ply,SBD,F
Girls,67.36,9,Karen Adame,Weslaco,63.05,113.4,38.56,117.93,269.89,Single-ply,SBD,F
Girls,67.36,10,Adrienne Vega,Weslaco,64.14,95.25,40.82,122.47,258.55,Single-ply,SBD,F
Girls,67.36,11,Gracy Espinoza,Brownsville Hanna,66.22,102.06,45.36,106.59,254.01,Single-ply,SBD,F
Girls,67.36,12,Sofia Cruz,Brownsville Hanna,62.23,99.79,34.02,111.13,244.94,Single-ply,SBD,F
Girls,67.36,13,Jazmin Hernandez,Brownsville Lopez,65.41,72.57,38.56,104.33,215.46,Single-ply,SBD,F
Girls,67.36,DQ,Amanda Perez #2,Brownsville Rivera,61.23,,,,,Single-ply,SBD,F
Girls,67.36,DQ,Sabrina Lara,Edcouch-Elsa,67.13,,,,,Single-ply,SBD,F
Girls,67.36,DQ,Natalie Garay,Los Fresnos,63.96,,,,,Single-ply,SBD,F
Girls,67.36,DQ,Franchesca Sandoval,Port Isabel,62.14,,,,,Single-ply,SBD,F
Girls,67.36,DQ,Briana O'Brien,Rio Hondo,64.86,122.47,61.23,,,Single-ply,SBD,F
Girls,67.36,DQ,Brittany Valdez,Edcouch-Elsa,67.31,,,,,Single-ply,SBD,F
Girls,75.07,1,Mary Ann Gonzalez,Brownsville Porter,72.67,156.49,58.97,133.81,349.27,Single-ply,SBD,F
Girls,75.07,2,Shelby Lara,Rio Hondo,73.94,149.69,70.31,117.93,337.93,Single-ply,SBD,F
Girls,75.07,3,Stephanie Trevino,Los Fresnos,68.27,127.01,63.5,127.01,317.51,Single-ply,SBD,F
Girls,75.07,4,Kat Pena,Brownsville Porter,74.84,108.86,45.36,133.81,288.03,Single-ply,SBD,F
Girls,75.07,5,Tiffany Found,Brownsville Hanna,74.39,102.06,40.82,122.47,265.35,Single-ply,SBD,F
Girls,75.07,6,Clarissa Marichalar,Edcouch-Elsa,72.76,102.06,43.09,111.13,256.28,Single-ply,SBD,F
Girls,75.07,7,Fernanda Zavala,Brownsville Hanna,68.95,83.91,34.02,90.72,208.65,Single-ply,SBD,F
Girls,75.07,DQ,Stephani Cruz,Brownsville Rivera,68.49,,,,,Single-ply,SBD,F
Girls,82.33,1,Cindy Galvan,Weslaco East,79.2,183.7,111.13,161.03,455.86,Single-ply,SBD,F
Girls,82.33,2,Korina Gonzalez,Pharr Valley View,75.3,156.49,81.65,142.88,381.02,Single-ply,SBD,F
Girls,82.33,3,Julie Torres,Los Fresnos,77.47,149.69,63.5,154.22,367.41,Single-ply,SBD,F
Girls,82.33,4,Cruz Ugarte,Brownsville Veterans Memorial,79.47,142.88,61.23,140.61,344.73,Single-ply,SBD,F
Girls,82.33,5,Kaylen Lopez,Weslaco,81.19,149.69,52.16,127.01,328.85,Single-ply,SBD,F
Girls,82.33,6,Crystal Leal,Brownsville Pace,81.19,136.08,56.7,131.54,324.32,Single-ply,SBD,F
Girls,82.33,7,Karen Barrios,San Benito,77.11,124.74,58.97,138.35,322.05,Single-ply,SBD,F
Girls,82.33,8,Allison Shuckman,Los Fresnos,77.93,124.74,49.9,138.35,312.98,Single-ply,SBD,F
Girls,82.33,9,Ruby Garza,Mercedes,78.93,124.74,52.16,129.27,306.17,Single-ply,SBD,F
Girls,82.33,10,Jackie Cano,Brownsville Pace,80.74,120.2,70.31,111.13,301.64,Single-ply,SBD,F
Girls,82.33,11,Mayte Gonzalez,Brownsville Veterans Memorial,78.47,104.33,45.36,120.2,269.89,Single-ply,SBD,F
Girls,82.33,12,Alex Trinidad #2,Brownsville Hanna,78.47,83.91,43.09,102.06,229.06,Single-ply,SBD,F
Girls,82.33,13,Claudia Silva #2,Brownsville Veterans Memorial,79.83,86.18,34.02,104.33,224.53,Single-ply,SBD,F
Girls,82.33,DQ,Dyana Morales,La Feria,77.66,,,,,Single-ply,SBD,F
Girls,90.04,1,Delila Silva,San Benito,88,170.1,83.91,140.61,394.63,Single-ply,SBD,F
Girls,90.04,2,Alyssa Ybarra,Edcouch-Elsa,88.45,167.83,70.31,156.49,394.63,Single-ply,SBD,F
Girls,90.04,3,Teresita Silva,Los Fresnos,88.22,170.1,77.11,145.15,392.36,Single-ply,SBD,F
Girls,90.04,4,Riley Garza,San Benito,85.73,140.61,86.18,138.35,365.14,Single-ply,SBD,F
Girls,90.04,5,Amber Benitez,Rio Hondo,83.91,158.76,72.57,129.27,360.61,Single-ply,SBD,F
Girls,90.04,6,Brittany Smith,Mercedes,85,163.29,61.23,122.47,347,Single-ply,SBD,F
Girls,90.04,7,Amber Rodriguez,La Feria,84.55,136.08,63.5,145.15,344.73,Single-ply,SBD,F
Girls,90.04,8,Alexa Trevino,Port Isabel,85.73,131.54,58.97,147.42,337.93,Single-ply,SBD,F
Girls,90.04,9,Christina Ramos,Edcouch-Elsa,83.91,142.88,70.31,113.4,326.59,Single-ply,SBD,F
Girls,90.04,10,Anel Garcia,Brownsville Lopez,86.36,117.93,58.97,122.47,299.37,Single-ply,SBD,F
Girls,90.04,11,Rosalee Flores,Edcouch-Elsa,88.18,120.2,54.43,115.67,290.3,Single-ply,SBD,F
Girls,90.04,12,Monique Gonzalez,La Feria,87.54,113.4,47.63,113.4,274.42,Single-ply,SBD,F
Girls,90.04,13,Kassandra Lopez,La Villa,84.37,77.11,40.82,86.18,204.12,Single-ply,SBD,F
Girls,90.04,DQ,Ashley Garay,Mercedes,83.91,,,,,Single-ply,SBD,F
Girls,100.02,1,Alyssa Jaramillo,Weslaco East,97.16,226.8,97.52,174.63,498.95,Single-ply,SBD,F
Girls,100.02,2,Kayla Ortiz,Brownsville Rivera,97.07,183.7,99.79,158.76,442.25,Single-ply,SBD,F
Girls,100.02,3,Monica Gonzalez,Brownsville Veterans Memorial,97.52,199.58,72.57,165.56,437.72,Single-ply,SBD,F
Girls,100.02,4,Sol Villlarreal,San Benito,99.79,185.97,95.25,156.49,437.72,Single-ply,SBD,F
Girls,100.02,5,Alexis Delgado #1,Weslaco,97.25,167.83,74.84,149.69,392.36,Single-ply,SBD,F
Girls,100.02,6,Faith Olszack,Weslaco East,99.06,147.42,68.04,149.69,365.14,Single-ply,SBD,F
Girls,100.02,7,Crystal Medrano,Weslaco East,98.79,154.22,70.31,124.74,349.27,Single-ply,SBD,F
Girls,100.02,8,Yasmine Perez,La Feria,90.72,129.27,47.63,131.54,308.44,Single-ply,SBD,F
Girls,100.02,9,Jocelyn Balboa,Los Fresnos,93.03,122.47,61.23,113.4,297.1,Single-ply,SBD,F
Girls,100.02,10,Terrysa Holland,Los Fresnos,98.02,117.93,58.97,117.93,294.84,Single-ply,SBD,F
Girls,100.02,11,Diana Mendoza,Brownsville Pace,99.79,83.91,47.63,113.4,244.94,Single-ply,SBD,F
Girls,100.02,DQ,Natalie Elias,Brownsville Rivera,96.34,,,,,Single-ply,SBD,F
Girls,100.02+,1,Vivianna Flores,Raymondville,120.38,238.14,111.13,161.03,510.29,Single-ply,SBD,F
Girls,100.02+,2,Alexia Correa,San Benito,119.29,217.72,99.79,176.9,494.42,Single-ply,SBD,F
Girls,100.02+,3,Charis Pompa,Weslaco,126.1,183.7,104.33,151.95,439.98,Single-ply,SBD,F
Girls,100.02+,4,Kayla Rojas,Weslaco,122.47,140.61,72.57,145.15,358.34,Single-ply,SBD,F
Girls,100.02+,5,Jasmine Sanchez,La Villa,109.77,115.67,47.63,131.54,294.84,Single-ply,SBD,F
Girls,100.02+,6,Sarah Infante,Brownsville Hanna,121.11,88.45,43.09,99.79,231.33,Single-ply,SBD,F
Girls,100.02+,7,Georgeana Trevino,Brownsville Hanna,112.49,65.77,40.82,92.99,199.58,Single-ply,SBD,F
