Division,WeightClassKg,Place,Name,Team,BodyweightKg,Best3SquatKg,Best3BenchKg,Best3DeadliftKg,TotalKg,Equipment,Event,Sex
Boys,51.71,1,Jerry Fail,Elkhart,49.8,99.79,56.7,102.06,258.55,Single-ply,SBD,M
Boys,51.71,2,Logan Shaw,Buffalo,43.45,90.72,52.16,99.79,242.67,Single-ply,SBD,M
Boys,51.71,3,Davis Young,Athens,48.53,83.91,43.09,88.45,215.46,Single-ply,SBD,M
Boys,51.71,4,Jason Botkin,Corsicana,46.81,65.77,47.63,99.79,213.19,Single-ply,SBD,M
Boys,51.71,DQ,Victor Quashie,Kerens,51.44,97.52,,,,Single-ply,SBD,M
Boys,55.79,1,Nate Mendoza,Kemp,54.34,127.01,77.11,145.15,349.27,Single-ply,SBD,M
Boys,55.79,2,Bob Hernandez,Malakoff Cross Roads,53.07,131.54,72.57,142.88,347,Single-ply,SBD,M
Boys,55.79,3,Cannon Churchman,Palestine Westwood,55.34,142.88,61.23,131.54,335.66,Single-ply,SBD,M
Boys,55.79,4,Chandler Prnka,Malakoff,53.07,122.47,70.31,129.27,322.05,Single-ply,SBD,M
Boys,55.79,5,Javi Zamora,Palestine,54.88,115.67,63.5,122.47,301.64,Single-ply,SBD,M
Boys,55.79,6,Jose Esquivel,Corsicana,54.61,104.33,56.7,108.86,269.89,Single-ply,SBD,M
Boys,55.79,7,Sergio Ezquieado,Fairfield,52.98,99.79,52.16,102.06,254.01,Single-ply,SBD,M
Boys,55.79,DQ,Osvaldo Palacios,Palestine,54.43,,,,,Single-ply,SBD,M
Boys,55.79,DQ,Brandon Renteria,Buffalo,51.98,,,,,Single-ply,SBD,M
Boys,59.87,1,Richard Lowrie,Kemp,56.25,181.44,102.06,158.76,442.25,Single-ply,SBD,M
Boys,59.87,2,Michael Rosales,Rusk,59.42,120.2,77.11,142.88,340.19,Single-ply,SBD,M
Boys,59.87,3,Cooper Jordan,Elkhart,57.97,115.67,81.65,138.35,335.66,Single-ply,SBD,M
Boys,59.87,4,Deandre Brown,Corsicana,58.6,115.67,70.31,138.35,324.32,Single-ply,SBD,M
Boys,59.87,5,Matthew Thompson #5,Palestine,58.06,92.99,83.91,140.61,317.51,Single-ply,SBD,M
Boys,67.13,1,Ulices Guerrero,Buffalo,67.13,167.83,102.06,174.63,444.52,Single-ply,SBD,M
Boys,67.13,2,Demarkus Ray,Elkhart,64.86,165.56,99.79,174.63,439.98,Single-ply,SBD,M
Boys,67.13,3,Caleb McNair,Rusk,64.95,172.37,102.06,149.69,424.11,Single-ply,SBD,M
Boys,67.13,4,Truman Garza,Buffalo,66.95,165.56,79.38,167.83,412.77,Single-ply,SBD,M
Boys,67.13,5,Timarco Cordon,Fairfield,63.68,149.69,92.99,165.56,408.23,Single-ply,SBD,M
Boys,67.13,6,Chris Soria,Buffalo,64.86,142.88,99.79,151.95,394.63,Single-ply,SBD,M
Boys,67.13,7,Zach Wilson #1,Kemp,65.14,106.59,99.79,174.63,381.02,Single-ply,SBD,M
Boys,67.13,8,Luis Labrador,Kerens,66.22,136.08,90.72,154.22,381.02,Single-ply,SBD,M
Boys,67.13,9,Kevin Pham,Palestine,65.59,131.54,88.45,158.76,378.75,Single-ply,SBD,M
Boys,67.13,10,Jose Guerrero,Athens,64.32,131.54,79.38,158.76,369.68,Single-ply,SBD,M
Boys,67.13,11,Kyle Kennerk,Cayuga,60.96,124.74,70.31,138.35,333.39,Single-ply,SBD,M
Boys,67.13,12,Michael Wong,Eustace,60.51,120.2,70.31,136.08,326.59,Single-ply,SBD,M
Boys,67.13,13,Nathan Cheatham,Palestine Westwood,65.68,111.13,74.84,138.35,324.32,Single-ply,SBD,M
Boys,67.13,DQ,Israel Enriquez,Rusk,67.13,136.08,,,,Single-ply,SBD,M
Boys,74.84,1,Zach Morrow #3,Palestine Westwood,69.58,185.97,108.86,185.97,480.81,Single-ply,SBD,M
Boys,74.84,2,Tyler Johnson,Malakoff Cross Roads,67.86,158.76,108.86,188.24,455.86,Single-ply,SBD,M
Boys,74.84,3,Ulises Ramirez,Fairfield,69.31,170.1,102.06,181.44,453.59,Single-ply,SBD,M
Boys,74.84,4,Byron Johnson #1,Rusk,73.94,172.37,104.33,174.63,451.32,Single-ply,SBD,M
Boys,74.84,5,Tyler Gray #3,Palestine,68.76,161.03,92.99,188.24,442.25,Single-ply,SBD,M
Boys,74.84,6,John Vaughn,Buffalo,73.03,151.95,92.99,158.76,403.7,Single-ply,SBD,M
Boys,74.84,7,Ty Bachtel,Fairfield,72.57,145.15,88.45,161.03,394.63,Single-ply,SBD,M
Boys,74.84,8,Zane Anderson,Fairfield,69.4,165.56,90.72,131.54,387.82,Single-ply,SBD,M
Boys,74.84,9,David Thomas #8,Fairfield,74.3,142.88,95.25,149.69,387.82,Single-ply,SBD,M
Boys,74.84,10,JP Hucklebridge,Palestine Westwood,73.48,147.42,79.38,154.22,381.02,Single-ply,SBD,M
Boys,74.84,11,Terry Richardson,Eustace,74.84,138.35,83.91,158.76,381.02,Single-ply,SBD,M
Boys,74.84,12,Bradley Miles,Athens,69.22,136.08,81.65,158.76,376.48,Single-ply,SBD,M
Boys,74.84,13,Michael McCarter,Blooming Grove,71.58,136.08,81.65,158.76,376.48,Single-ply,SBD,M
Boys,74.84,14,Draven DeLeon,Palestine,67.77,142.88,83.91,142.88,369.68,Single-ply,SBD,M
Boys,74.84,15,Keshawn Nonette,Palestine,73.48,136.08,88.45,142.88,367.41,Single-ply,SBD,M
Boys,74.84,16,Braden Raymond,Malakoff,69.9,140.61,70.31,147.42,358.34,Single-ply,SBD,M
Boys,74.84,17,Lex Thompson,Fairfield,69.85,129.27,68.04,102.06,299.37,Single-ply,SBD,M
Boys,74.84,18,Tommy Burk,Buffalo,71.21,90.72,70.31,108.86,269.89,Single-ply,SBD,M
Boys,74.84,DQ,Bryce Driver,Rusk,68.95,158.76,,,,Single-ply,SBD,M
Boys,74.84,DQ,Koby Phelps,Kerens,74.39,102.06,,,,Single-ply,SBD,M
Boys,74.84,DQ,Taylor Vincent,Cayuga,73.48,165.56,,,,Single-ply,SBD,M
Boys,82.1,1,JaShaughn Hatcher,Fairfield,79.38,226.8,127.01,226.8,580.6,Single-ply,SBD,M
Boys,82.1,2,Hector Dominguez,Buffalo,82.1,226.8,124.74,219.99,571.53,Single-ply,SBD,M
Boys,82.1,3,Mike Agan,Elkhart,79.74,206.38,129.27,192.78,528.44,Single-ply,SBD,M
Boys,82.1,4,Roderick Deyon,Palestine,79.38,188.24,124.74,181.44,494.42,Single-ply,SBD,M
Boys,82.1,5,Rusin Goff,Blooming Grove,78.38,165.56,102.06,195.04,462.66,Single-ply,SBD,M
Boys,82.1,6,Anthony Lopez,Athens,76.29,170.1,131.54,142.88,444.52,Single-ply,SBD,M
Boys,82.1,7,Garridan Henderson,Fairfield,75.11,170.1,92.99,174.63,437.72,Single-ply,SBD,M
Boys,82.1,8,Xavier Robertson,Eustace,80.56,147.42,106.59,183.7,437.72,Single-ply,SBD,M
Boys,82.1,9,Kevin Kennerk,Cayuga,78.47,161.03,74.84,165.56,401.43,Single-ply,SBD,M
Boys,82.1,10,Miller Smith,Fairfield,77.11,156.49,79.38,161.03,396.89,Single-ply,SBD,M
Boys,82.1,11,Johnathan Hernandez,Malakoff,77.66,142.88,90.72,158.76,392.36,Single-ply,SBD,M
Boys,82.1,12,Alex Dupree,Eustace,82.1,151.95,92.99,140.61,385.55,Single-ply,SBD,M
Boys,82.1,13,Cason Grasch,Cayuga,76.11,149.69,81.65,147.42,378.75,Single-ply,SBD,M
Boys,82.1,14,Klayton House,Athens,76.66,136.08,88.45,154.22,378.75,Single-ply,SBD,M
Boys,82.1,15,Tyler Crews,Malakoff,76.02,136.08,70.31,147.42,353.8,Single-ply,SBD,M
Boys,82.1,16,Darren Killingsworth,Athens,79.83,102.06,81.65,113.4,297.1,Single-ply,SBD,M
Boys,89.81,1,Alan Quezada,Kemp,85.64,226.8,142.88,206.38,576.06,Single-ply,SBD,M
Boys,89.81,2,Victor Quevedo,Eustace,88,215.46,129.27,210.92,555.65,Single-ply,SBD,M
Boys,89.81,3,Maalik Hall,Athens,84.73,204.12,111.13,231.33,546.58,Single-ply,SBD,M
Boys,89.81,4,Antonio Miranda,Athens,88.45,204.12,117.93,204.12,526.17,Single-ply,SBD,M
Boys,89.81,5,Trey Walters,Palestine Westwood,89.54,176.9,136.08,213.19,526.17,Single-ply,SBD,M
Boys,89.81,6,Taylor Little,Kemp,87.09,217.72,120.2,183.7,521.63,Single-ply,SBD,M
Boys,89.81,7,Jamar Clewis,Palestine Westwood,89.81,213.19,120.2,185.97,519.36,Single-ply,SBD,M
Boys,89.81,8,DeVonte McClain,Palestine Westwood,83.19,181.44,108.86,185.97,476.27,Single-ply,SBD,M
Boys,89.81,9,Trey Keel,Rusk,83.91,183.7,92.99,199.58,476.27,Single-ply,SBD,M
Boys,89.81,10,Pablo Pachuca,Kerens,83.37,163.29,92.99,181.44,437.72,Single-ply,SBD,M
Boys,89.81,11,Nick Acker,Rusk,85.91,151.95,88.45,149.69,390.09,Single-ply,SBD,M
Boys,89.81,12,Jay'Quan Barnett,Henderson,86.18,120.2,88.45,170.1,378.75,Single-ply,SBD,M
Boys,89.81,13,Kaden Mattingly,Malakoff Cross Roads,89.63,133.81,90.72,151.95,376.48,Single-ply,SBD,M
Boys,89.81,14,Cameron Castles,Henderson,87.36,142.88,79.38,142.88,365.14,Single-ply,SBD,M
Boys,89.81,15,Preston Turner,Malakoff Cross Roads,85.73,120.2,83.91,142.88,347,Single-ply,SBD,M
Boys,89.81,16,Tristan Stroud,Henderson,85.64,120.2,65.77,140.61,326.59,Single-ply,SBD,M
Boys,89.81,17,Juan Marron,Athens,89.81,120.2,65.77,113.4,299.37,Single-ply,SBD,M
Boys,89.81,DQ,Caleb Adams,Malakoff,88.99,188.24,,,,Single-ply,SBD,M
Boys,89.81,DQ,Kyler Dalrymple,Malakoff,87.82,151.95,,,,Single-ply,SBD,M
Boys,99.79,1,Noah Bush,Athens,97.52,249.48,170.1,226.8,646.37,Single-ply,SBD,M
Boys,99.79,2,Gavin DeFore,Elkhart,91.81,233.6,145.15,213.19,591.94,Single-ply,SBD,M
Boys,99.79,3,Edward Reese,Palestine,93.89,208.65,124.74,226.8,560.19,Single-ply,SBD,M
Boys,99.79,4,Caleb Johnson,Corsicana,98.07,204.12,127.01,226.8,557.92,Single-ply,SBD,M
Boys,99.79,5,Brendan Harcrow,Cayuga,98.25,208.65,142.88,204.12,555.65,Single-ply,SBD,M
Boys,99.79,6,Melvin Martin,Corsicana,99.34,199.58,115.67,226.8,542.04,Single-ply,SBD,M
Boys,99.79,7,Travell Bryant,Palestine,98.43,195.04,129.27,204.12,528.44,Single-ply,SBD,M
Boys,99.79,8,Kasey Cockrell,Kemp,98.79,195.04,117.93,199.58,512.56,Single-ply,SBD,M
Boys,99.79,9,Dalan Clowdus,Kemp,99.79,192.78,113.4,181.44,487.61,Single-ply,SBD,M
Boys,99.79,10,Tristan Williams,Corsicana,92.71,174.63,113.4,190.51,478.54,Single-ply,SBD,M
Boys,99.79,11,Jorge Cruz,Henderson,96.62,158.76,120.2,192.78,471.74,Single-ply,SBD,M
Boys,99.79,12,Austin Prevost,Malakoff,91.17,172.37,86.18,158.76,417.3,Single-ply,SBD,M
Boys,99.79,13,Garrett Griffin,Eustace,94.35,158.76,111.13,142.88,412.77,Single-ply,SBD,M
Boys,99.79,14,Anthony Hill,Athens,98.43,142.88,74.84,188.24,405.97,Single-ply,SBD,M
Boys,99.79,15,Timothy Simpson,Buffalo,94.35,140.61,102.06,136.08,378.75,Single-ply,SBD,M
Boys,99.79,16,Tristan LeGard,Cayuga,96.62,122.47,95.25,147.42,365.14,Single-ply,SBD,M
Boys,99.79,17,Matthew Barber,Cayuga,98.88,127.01,77.11,154.22,358.34,Single-ply,SBD,M
Boys,99.79,18,Hunter Martin #4,Athens,92.08,124.74,68.04,136.08,328.85,Single-ply,SBD,M
Boys,99.79,DQ,John Montano,Buffalo,92.99,140.61,,,,Single-ply,SBD,M
Boys,99.79,DQ,Shemar Willis,Athens,97.98,195.04,,,,Single-ply,SBD,M
Boys,109.77,1,TJ Jones,Elkhart,106.87,244.94,142.88,226.8,614.62,Single-ply,SBD,M
Boys,109.77,2,Jermaine Lewis,Rusk,105.96,226.8,113.4,226.8,566.99,Single-ply,SBD,M
Boys,109.77,3,Deonundre Hatton,Palestine,101.06,199.58,158.76,204.12,562.45,Single-ply,SBD,M
Boys,109.77,4,Seth White,Corsicana,105.32,226.8,117.93,183.7,528.44,Single-ply,SBD,M
Boys,109.77,5,LaDarius Price,Fairfield,106.96,181.44,129.27,215.46,526.17,Single-ply,SBD,M
Boys,109.77,6,Clayton Conrad,Henderson,104.33,192.78,111.13,204.12,508.02,Single-ply,SBD,M
Boys,109.77,7,Seth Hoffman,Rusk,104.87,190.51,104.33,174.63,469.47,Single-ply,SBD,M
Boys,109.77,8,Stuart Edmonds,Corsicana,102.51,158.76,99.79,183.7,442.25,Single-ply,SBD,M
Boys,109.77,9,Zayden Devereaux,Rusk,107.05,172.37,97.52,165.56,435.45,Single-ply,SBD,M
Boys,109.77,10,Cedric Hicks,Palestine,103.33,181.44,106.59,142.88,430.91,Single-ply,SBD,M
Boys,109.77,11,Joey Ingram,Cayuga,109.59,140.61,74.84,158.76,374.21,Single-ply,SBD,M
Boys,109.77,12,Keith Nonette,Palestine,101.06,113.4,102.06,142.88,358.34,Single-ply,SBD,M
Boys,109.77,13,Roberto Miranda,Henderson,106.41,136.08,81.65,140.61,358.34,Single-ply,SBD,M
Boys,109.77,14,Dontavious Robinson,Palestine Westwood,107.05,142.88,81.65,124.74,349.27,Single-ply,SBD,M
Boys,109.77,15,Chris Hubbard,Henderson,100.88,102.06,70.31,111.13,283.5,Single-ply,SBD,M
Boys,124.74,1,Eli Crawford,Kerens,117.03,265.35,149.69,258.55,673.58,Single-ply,SBD,M
Boys,124.74,2,Malik Benson,Palestine Westwood,121.56,285.76,147.42,240.4,673.58,Single-ply,SBD,M
Boys,124.74,3,Benito Rivas,Buffalo,121.11,233.6,151.95,224.53,610.08,Single-ply,SBD,M
Boys,124.74,4,DeAunte Thomas,Corsicana,113.94,240.4,136.08,208.65,585.13,Single-ply,SBD,M
Boys,124.74,5,Garrett Hayes,Athens,123.38,226.8,129.27,226.8,582.87,Single-ply,SBD,M
Boys,124.74,6,Keevon Jackson,Palestine Westwood,122.02,204.12,97.52,183.7,485.34,Single-ply,SBD,M
Boys,124.74,7,Bradley Milligan,Corsicana,123.65,163.29,99.79,167.83,430.91,Single-ply,SBD,M
Boys,124.74,DQ,Mario Salas,Henderson,120.2,161.03,111.13,,,Single-ply,SBD,M
Boys,124.74+,1,Jesus Garcia-Castillo,Palestine,161.48,272.16,158.76,238.14,669.05,Single-ply,SBD,M
Boys,124.74+,2,Micheal Marshall,Eustace,136.53,242.67,151.95,238.14,632.76,Single-ply,SBD,M
Boys,124.74+,3,Deontae Martin,Corsicana,137.98,249.48,147.42,233.6,630.49,Single-ply,SBD,M
Boys,124.74+,4,Dejuan Ealy,Palestine,125.65,238.14,154.22,199.58,591.94,Single-ply,SBD,M
Boys,124.74+,5,Joseph Lopez #6,Kemp,156.94,226.8,151.95,213.19,591.94,Single-ply,SBD,M
Boys,124.74+,6,Marcus Staggs,Eustace,127.91,213.19,136.08,213.19,562.45,Single-ply,SBD,M
Boys,124.74+,7,Kyle Box,Kemp,133.36,195.04,142.88,204.12,542.04,Single-ply,SBD,M
Boys,124.74+,8,Garrett Blalock,Rusk,132.45,183.7,111.13,204.12,498.95,Single-ply,SBD,M
Boys,124.74+,9,Kooper Hardwick,Palestine,154.67,188.24,122.47,188.24,498.95,Single-ply,SBD,M
Boys,124.74+,10,Tradarion Sadler,Palestine,148.78,158.76,102.06,183.7,444.52,Single-ply,SBD,M
Boys,124.74+,11,Jacob Nichols,Henderson,153.31,120.2,77.11,138.35,335.66,Single-ply,SBD,M
