﻿BDFPF BK. - CHAMP BEL BENCH UNEQUIPPED 2012
BENCH PRESS  UNEQUIPPED
                                                  W.Class                                                                         1é      2é       3é       4     points
1                                             1   - 63 KG Wuyts                Helen      V   Gilberts Gym       20   JR   59,4   75      -77,5    -77,5          65,07
2                                             1   - 63 KG Wuyts                Hazel      V   Gilberts gym       15   T1   62,1   30      35       40             33,43
1                                             1   - 80 KG Dechamps             Nadege     V   Castors            15   T1   74,0   80      -85,5    -85,5          58,29
1                                             1   - 90 KG Schaefs              Martine    V   Castors            57   M4   83,8   40      50       52,5           34,93
1                                             1   + 90 KG Claes                Claudia    V   Planet Fitness     44   M1   93,9   70      75       -77,5          46,35
1                                             1   56 KG Vermeulen              Sven       M   Iso Gym            20   JR   53,9   75      80       85       -88   77,61
1                                             1   60 KG Smet                   Indy       M   Planet Finess      18   T3   58,8   70      80       88,5     -90   72,63
2                                             1   60 KG Demeyre                Bram       M   KBBC               17   T2   57,1   65      70       -75            59,95
1                                             1   67,5 KG Van Den Abbele Tim              M   Gilberts Gym       24   SR   62,7   110     117,5    -122,5         91,38
2                                             1   67,5 KG Van Hoof             Xander     M   Gilberts Gym       19   T3   66,9   100     -110     -110           73,17
3                                             1   67,5 KG Jacmart              Jeremy     M   Castors            20   JR   62,2   80      85       -87,5          66,63
4                                             2   67,5 KG Cuylle               Angelo     M   Isogym             18   T3   66,6   80      85       -87,5          62,45
5                                             3   67,5 KG Bruneel              Angelo     M   Isogym             18   T3   63,4   -70     70       75             57,71
1                                             1   75 KG Sudarminto             Indra      M   Planet Fitness     21   JR   74,3   132,5   137,5    -143           92,04
2                                             1   75 KG Hallewaert             Bart       M   Isogym             43   M1   74,7   130     135      -138           89,99
3                                             1   75 KG Houbraken              Kim        M   Gilberts Gym       28   SR   70,0   115     130      -135           91,40
4                                             1   75 KG De Vissher             Geovanni   M   Power Lebbeke      18   T3   70,0   125     -132,5   -132,5         87,89
5                                             1   75 KG Van Gucht              Maikel     M   Power lebbeke      16   T2   71,4   -110    115,5    120            82,97
6                                             2   75 KG Wangermez              Wauter         M    Team Effort   21   JR   74,0   105     112,5    117,5          78,89
7                                             2   75 KG Mignolet               Geoffrey   M   Castors            17   T2   72,7   105     110      112,5          76,64
8                                             1   75 KG Callemeyn              Johny      M   Fit 4 fun          58   M4   73,9   -100    100      105            70,59
9                                             2   75 KG Van Den  Eynde Luc                    M    Patton Team   55   M4   72,5   87,5    92,5     97,5           66,57
10                                            2   75 KG Hassinen               Antti      M   House Of Gain      28   SR   74,1   -95     95       -100           63,73
11                                            3   75 KG Eeckhout               Laurens        M    Patton Team   16   T2   68,3   80      87,5     -90            62,85
12                                            1   75 KG Al Dhyni               Jamal      M   KBBC               15   T1   68,9   80      85       -90            60,59
13                                            1   75 KG de Koster              Pierre         M    Patton Team   79   M8   70,9   70      77,5     82,5     85    57,38
BR
BEST LIFTER
11 - 03 - 2012 Vosselaar

BDFPF BK. - CHAMP BEL BENCH UNEQUIPPED 2012
BENCH PRESS  UNEQUIPPED
                                                    W.Class                                                                              1é       2é       3é       4       points
1                                             1     82,5 KG Servotte              Geoffroy     M   Planet Fitness      31   SR   82,1    162,5    170,5    -175             105,64
2                                             2     82,5 KG Van Caesbroeck Bren                    M    Gilberts Gym   28   SR   82,5    120      -135     140              86,70
3                                             1     82,5 KG Peeters               Alan             M    Gilberts Gym   18   T3   79,4    115      125,5    130              82,73
4                                             1     82,5 KG Soenens               Gillis       M   Isogym              21   JR   75,7    112,5    117,5    -120             77,51
5                                             2     82,5 KG Lefebvre              Jonas        M   KBBC                20   JR   79,1    105      110      115              73,39
6                                             1     82,5 KG Bartels               Thijs        M   Power Lebbeke       16   T2   80,1    100      110      115              72,73
7                                             3     82,5 KG Huyse                 Elliot       M   KBBC                20   JR   81,8    110      112,5    -115             70,09
8                                             2     82,5 KG van Heesvelde         Bart         M   House Of Gain       19   T3   80,7    95       107,5    -115             67,62
9                                             1     82,5 KG Roegiers              Jean-Paul        M    Jackys Gym     67   M6   81,2    100      -105     105      -108    65,75
10                                            1     82,5 KG Remy                  Roger        M   Castors             58   M4   77,7    95       100      102,5    -108    66,29
11                                            4     82,5 KG Lauveryns             Jarno        M   House Of Gain       20   JR   77,5    100      -110     -110             64,79
12                                            1     82,5 KG Devos                 Kurt         M   KBBC                40   M1   79,9    85       90       92,5             58,60
13                                            1     82,5 KG Vandoorne             Billy        M   KBBC                74   M7   75,7    82,5     87,5     -90              57,72
14                                            3     82,5 KG Martins               Tycho        M   House Of Gain       19   T3   80,4    80       87,5     -95              55,19
1                                             1     90 KG Jacobs                  Philippe         M      Charleroi    40   M1   88,1    152,5    160      165      167,5   97,85
2                                             2     90 KG Janssen                 Geert        M   Gilberts Gym        43   M1   84,5    125      135      140              85,30
3                                             3     90 KG Smet                    Rudy         M   Planet Fitness      43   M1   88,2    135      -140     140              82,96
4                                             1     90 KG Vermandere              Thomas       M   Isogym              21   JR   88,7    120      -125     -125             70,86
5                                             1     90 KG Boone                   Jens         M   Galaxy              17   T2   88,0    -115     117,5    -123             69,74
6                                             1     90 KG Devaere                 Achiel           M    Jackys Gym     64   M5   88,6    105      -107,5   -107,5           62,06
7                                             1     90 KG Naenen                  Niels        M   Gilberts Gym        18   T3   89,5    100      105      -110             61,67
8                                             1     90 KG Theyssens               Martin       M   Patton Team         72   M7   89,3    95       -102,5   102,5    -108    60,28
9                                             1     90 KG Dhaene                  Kevin        M   Planet Fitness      25   SR   82,8    95       100      -105             61,77
10                                            1     90 KG De Cock                 Eugene       M   Apollo              49   M2   86,5    90       95       100              60,00
11                                            2     90 KG Ismaelov                Indris       M   Patton Team         63   M5   90,0    70       80       -90              46,82
12                                            2     90 KG Petiliion               Enzo         M   Isogym              18   T3   88,7    77,5     -82,5    -82,5            45,76
1                                             1     100 KG Saltakhanov            Vakhid       M   KBBC                46   M2   98,9    140      160      -165             89,09
2                                             1     100 KG Alsberghe              Simon        M   KBBC                20   JR   95,7    150      155      -157,5           87,68
3                                             1     100 KG Deceuninck             Dylan        M   Isogym              19   T3   90,9    135      145,5    -150             84,38
4                                             2     100 KG Van Heesvelde          Jeroen       M   House Of Gain       21   JR   98,0    125      135      140              78,27
5                                             2     100 KG Verbeke                Beny         M   Isogym              46   M2   90,1    110      115      -117,5           67,28
6                                             1     100 KG Mertens                Rene         M   Planet Fitness      78   M8   99,0    105      110                       61,22
7                                             2     100 KG Velghe                 Jonas        M   Isogym              19   T3   90,6    90       -95      95               55,39
8                                             out   100 KG Egide                  Gregoire     M   House Of Gain       27   SR   95,2    -130     -137,5   -137,5           0,00
1                                             1     110 KG Malotteau              Jean-Louis   M   Castors             48   M2   109,3   165      170      -175             91,34
2                                             1     110 KG Blomme                 Mathias      M   Iso Gym             26   SR   101,4   150      157,5    -160             86,75
3                                             2     110 KG Vertstraeten           Wouter           M     Fit For Fun   34   SR   100,7   145      -150     -150             80,10
4                                             1     110 KG Van Roy                Yannick      M   Planet Fitness      20   JR   109,7   135      137,5    140              75,15
5                                             3     110 KG Macca                  Jonathan         M      Charleroi    24   SR   101,7   122,5    127,5    -130             70,15
1                                             1     125 KG Dubucq                 Michel       M   Castors             54   M3   117,1   170      177,5    180              95,33
2                                             1     125 KG Duflon                 David        M   KBBC                37   SR   112,5   125      135      -145             72,05
3                                             1     125 KG Rogé                   Johan        M   KBBC                62   M5   123,5   125      -130     -130             65,39
4                                             2     125 KG Vanwest                Francis      M   KBBC                51   M3   116,6   100      105      -107,5           55,65
5                                             3     125 KG Goovaerts              Marc         M   Patton Team         54   M3   115,1   90       95       100              53,13
6                                             2     125 KG Van Hove               Gilbert      M   Castors             61   M5   117,5   80                                 42,34
1                                             1     145 KG Dechamps               Jerome       M   Castors             23   JR   126,3   142,5    150      -155             77,91
2                                             out   145 KG Dechamps               Sebastien    M   Castors             18   T3   135,0   -142,5   -142,5   -142,5           0,00
BR
BEST LIFTER
11 - 03 - 2012 Vosselaar
