﻿BDFPF - DFPFNL NATIONAAL KAMPIOENSCHAP
BK Deadl Un
                                         Op age W Class                                                                     BW      1       2       3        4       Points
1                                        1                - 63 KG Sudarminto                 Kartika    F   BEL   28   SR   62,3    130     137,5   145              120,87
1                                        1                - 90 KG Verweider                  Justine    F   BEL   21   JR   88,0    127,5   135     145      150,5   93,02
1                                        1                67,5 KG Boland                     Darren     M   BEL   43   M1   66,0    180     195     206              151,86
2                                                         67,5 KG Rebolledo EspinoCristian              M   BEL   24   SR   65,6    180     190     200      207,5   149,00
3                                                         67,5 KG Vanhaverbeke   Kenny                  M   BEL   34   SR   66,3    170     185     -195             136,47
4                                                         67,5 KG Goossens                   Chesney    M   BEL   26   SR   64,6    140     152,5   165              124,69
1                                        1                67,5 KG Van Den BroeckeDaniel                 M   BEL   22   JR   65,3    140     150     -155             112,22
1                                        1                67,5 KG De Ridder                  Pascal     M   BEL   51   M3   62,5    120     135     140      156     109,23
1                                                         75 KG Dierckx                      Liam       M   BEL   24   SR   67,9    180     187,5   192,5            138,99
2                                        1                75 KG Van Laere                    Tjorven    M   BEL   19   T3   74,3    172,5   187,5   -200             125,51
3                                                         75 KG Van den Abbeele Tim                     M   BEL   31   SR   70,3    160     180     -200             126,09
4                                                         75 KG Waroux                       Dirk       M   BEL   38   SR   75,0    160     170     -180             112,97
1                                                         82,5 KG Sudarminto                 Indra      M   BEL   28   SR   76,7    255     265     275              179,58
2                                        1                82,5 KG Abdullah                   Cristian   M   BEL   20   JR   79,6    185     200     220              139,74
3                                        1                82,5 KG Porumbescu                 Liviu      M   BEL   18   T3   78,7    200     -220    -235             128,10
1                                        1                90 KG Cheaitli                     Hatem      M   BEL   20   JR   89,0    227,5   -245    -245             134,07
2                                                         90 KG De Baere                     Manuel     M   BEL   24   SR   85,4    200     210     220              133,10
3                                        1                90 KG Theyssens                    Martin     M   BEL   79   M8   90,0    105     115     -125             67,31
1                                                         100 KG Van Den Abeele              Ward       M   BEL   25   SR   99,6    250     260     270              149,85
2                                                         100 KG Dedeurwaerder               Kenny      M   BEL   38   SR   93,8    215     235     245              140,07
3                                                         100 KG Dequidt                     Benn       M   BEL   24   SR   94,0    220     225     230              131,33
4                                        1                100 KG Martiniuc                   Egor       M   BEL   35   SR   97,5    190     205     215              120,51
5                                        1                100 KG Dossche                     Willy      M   BEL   56   M4   94,0    90      100     -105             57,10
1                                                         110 KG Tancré                      Kevin      M   BEL   24   SR   103,0   227,5   242,5   250              136,88
2                                                         110 KG Czernikiewicz               Szymon     M   BEL   28   SR   106,9   200     -210    -217,5           108,14
1                                                         125 KG Dejans                      Bjorn      M   BEL   33   SR   118,0   -230    240     255              134,84
1                                        1                125 KG Duflon                      David      M   BEL   44   M1   113,0   180     190     200              106,64
                                         Op age W Class                                                                     BW      1       2       3        4       Points
                                         NK Deadl Un
1                                        1                - 58,5 KG Zwerts                   Rowana     F   NED   20   JR   57,3    110     120     125      130     111,76
1                                        1                75 KG De Graaf                     Jelle      M   NED   22   JR   73,9    150     160     163      170     109,25
                                         Doping test                                                                   ER
                                         NR                                                                            WR
9 Maart 2019

BDFPF - DFPFNL NATIONAAL KAMPIOENSCHAP
Deadl Un                                 Gast Lifters
Op age W Class                                                                                  BW      1       2       3       4       Points
1                                        110 KG Clark     Fraser            M   GBR   29 SR     102,2   235     242,5   250             137,28
2                                        110 KG Kedie     Jason             M   GBR   30 SR     110,0   240     247,5   -260            132,78
1                                        60 KG Grünberg   Michael           M   GER   52 M3     58,0    125     135     -146            113,70
1
1                                        1                - 80 KG Kinkel    Birgit    F   GER   54 M3   72,7    105     110     112,5   83,01
1                                        1                100 KG Pütz       David     M   GER   42 M1   90,7    170     180     -190    104,89
1                                        1                145 KG Hansen     Heiner    M   GER   57 M4   132,5   220     240     -260    122,88
2                                        1                145 KG Tetzlaff   Martin    M   GER   47 M2   128,7   200     217,5           112,36
Doping test                              ER
NR                                       WR
9 Maart 2019
