Division,WeightClassKg,Place,Name,Team,BodyweightKg,Best3SquatKg,Best3BenchKg,Best3DeadliftKg,TotalKg,Equipment,Event,Sex
Boys,51.71,1,Esteban Urquieta,Corpus Christi Tuloso-Midway,51.07,174.63,68.04,165.56,408.23,Single-ply,SBD,M
Boys,51.71,2,Arnold Pena,Benavides,51.62,149.69,88.45,163.29,401.43,Single-ply,SBD,M
Boys,51.71,3,Roger Guzman,Zapata,51.71,115.67,61.23,158.76,335.66,Single-ply,SBD,M
Boys,51.71,4,Austin Mendez,San Diego,51.35,106.59,58.97,113.4,278.96,Single-ply,SBD,M
Boys,51.71,5,Michael Benavides,Corpus Christi Tuloso-Midway,47.9,83.91,47.63,111.13,242.67,Single-ply,SBD,M
Boys,55.79,1,Danny Ruiz,Zapata,55.34,201.85,92.99,195.04,489.88,Single-ply,SBD,M
Boys,55.79,2,Brandon Canales,Benavides,54.98,158.76,97.52,188.24,444.52,Single-ply,SBD,M
Boys,55.79,3,Adrian Campos,Freer,52.71,170.1,108.86,163.29,442.25,Single-ply,SBD,M
Boys,55.79,4,Niko Munoz,Falfurrias,55.16,172.37,102.06,165.56,439.98,Single-ply,SBD,M
Boys,55.79,5,Tristan Perez #2,Benavides,54.25,151.95,68.04,158.76,378.75,Single-ply,SBD,M
Boys,55.79,6,Austin Lopez,Hebbronville,55.52,149.69,79.38,142.88,371.95,Single-ply,SBD,M
Boys,55.79,7,J C Cantu,San Diego,53.16,124.74,65.77,147.42,337.93,Single-ply,SBD,M
Boys,55.79,8,Marcus Schuessler,Freer,55.43,124.74,65.77,147.42,337.93,Single-ply,SBD,M
Boys,59.87,1,Ryan Saenz,Hebbronville,58.88,183.7,97.52,170.1,451.32,Single-ply,SBD,M
Boys,59.87,2,Damian Diaz,Hebbronville,57.06,149.69,68.04,163.29,381.02,Single-ply,SBD,M
Boys,59.87,3,Eddie Garcia,Zapata,59.42,106.59,74.84,122.47,303.91,Single-ply,SBD,M
Boys,67.13,1,Anthony Perez,San Diego,65.95,260.82,151.95,231.33,644.1,Single-ply,SBD,M
Boys,67.13,2,Brandon Carballo,Hebbronville,65.14,201.85,108.86,190.51,501.22,Single-ply,SBD,M
Boys,67.13,3,Cesar Uribe,Zapata,64.86,181.44,111.13,188.24,480.81,Single-ply,SBD,M
Boys,67.13,4,Joe Chick,Zapata,67.13,149.69,90.72,165.56,405.97,Single-ply,SBD,M
Boys,67.13,5,Ulyses Botello,Corpus Christi Tuloso-Midway,62.32,147.42,92.99,161.03,401.43,Single-ply,SBD,M
Boys,67.13,6,Austin Contreras,Corpus Christi Tuloso-Midway,62.87,104.33,58.97,147.42,310.71,Single-ply,SBD,M
Boys,67.13,7,Jose Saenz,San Diego,61.96,113.4,77.11,111.13,301.64,Single-ply,SBD,M
Boys,67.13,8,Richard Munoz,Carrizo Springs,65.95,92.99,83.91,113.4,290.3,Single-ply,SBD,M
Boys,74.84,1,Ramiro Gonzalez,Falfurrias,69.94,226.8,131.54,240.4,598.74,Single-ply,SBD,M
Boys,74.84,2,Dale Baez,Hebbronville,74.12,183.7,104.33,183.7,471.74,Single-ply,SBD,M
Boys,74.84,3,Daniel Puga,Corpus Christi Tuloso-Midway,72.12,183.7,108.86,165.56,458.13,Single-ply,SBD,M
Boys,74.84,4,Lee Bazan,San Diego,73.3,181.44,83.91,188.24,453.59,Single-ply,SBD,M
Boys,74.84,5,Jose Perez #18,Benavides,70.94,154.22,104.33,176.9,435.45,Single-ply,SBD,M
Boys,74.84,6,Jonaven Gonzalez,Hebbronville,72.48,163.29,104.33,158.76,426.38,Single-ply,SBD,M
Boys,74.84,7,Chiso Novampka,Corpus Christi Tuloso-Midway,70.76,156.49,88.45,154.22,399.16,Single-ply,SBD,M
Boys,74.84,8,Marc Rivera,Zapata,74.84,129.27,63.5,163.29,356.07,Single-ply,SBD,M
Boys,74.84,9,Percy Alvarez,Zapata,72.12,117.93,77.11,140.61,335.66,Single-ply,SBD,M
Boys,74.84,DQ,Garrett Turner,Corpus Christi Tuloso-Midway,73.48,,,,,Single-ply,SBD,M
Boys,82.1,1,Eric Gonzalez,Carrizo Springs,79.92,188.24,111.13,217.72,517.1,Single-ply,SBD,M
Boys,89.81,1,Max Castillo,San Diego,88.18,226.8,92.99,176.9,496.68,Single-ply,SBD,M
Boys,89.81,2,Rene Garcia,Zapata,89.36,181.44,127.01,151.95,460.4,Single-ply,SBD,M
Boys,89.81,3,Roel de los Santos,Zapata,86.64,140.61,63.5,136.08,340.19,Single-ply,SBD,M
Boys,89.81,4,Daniel Narvaez,Falfurrias,84.46,102.06,61.23,124.74,288.03,Single-ply,SBD,M
Boys,89.81,5,Diego Reyes,Carrizo Springs,89.18,58.97,52.16,81.65,192.78,Single-ply,SBD,M
Boys,89.81,DQ,Dante Vasquez,Corpus Christi Tuloso-Midway,89.09,231.33,,,,Single-ply,SBD,M
Boys,89.81,DQ,Jaime Garcia #1,Zapata,88,138.35,72.57,,,Single-ply,SBD,M
Boys,99.79,1,Franco Arce,Zapata,99.34,306.17,149.69,258.55,714.41,Single-ply,SBD,M
Boys,99.79,2,Ethan Gonzalez #2,San Diego,96.89,249.48,145.15,226.8,621.42,Single-ply,SBD,M
Boys,99.79,3,Ithel Carrillo,Hebbronville,94.08,235.87,163.29,219.99,619.15,Single-ply,SBD,M
Boys,99.79,4,John Eguia,Corpus Christi Tuloso-Midway,96.89,233.6,133.81,197.31,564.72,Single-ply,SBD,M
Boys,99.79,5,Luis Perales,Carrizo Springs,90.26,208.65,133.81,215.46,557.92,Single-ply,SBD,M
Boys,99.79,6,Phillip Valles,Carrizo Springs,93.89,90.72,61.23,108.86,260.82,Single-ply,SBD,M
Boys,109.77,1,Michael Salaiz,San Diego,108.05,278.96,151.95,244.94,675.85,Single-ply,SBD,M
Boys,109.77,2,Elias Cantu,Hebbronville,100.33,222.26,154.22,208.65,585.13,Single-ply,SBD,M
Boys,109.77,3,Leo Soliz,Corpus Christi Tuloso-Midway,107.23,201.85,97.52,165.56,464.93,Single-ply,SBD,M
Boys,109.77,4,Emiliano Martinez,Zapata,103.87,140.61,63.5,145.15,349.27,Single-ply,SBD,M
Boys,109.77,5,Cotton Reddick,Carrizo Springs,105.05,99.79,65.77,104.33,269.89,Single-ply,SBD,M
Boys,124.74,1,Brandon Orosco,Carrizo Springs,119.57,206.38,120.2,183.7,510.29,Single-ply,SBD,M
Boys,124.74,2,Martin Navarro,Zapata,115.21,190.51,127.01,188.24,505.76,Single-ply,SBD,M
Boys,124.74,3,Mike Ramon,Zapata,117.48,131.54,90.72,127.01,349.27,Single-ply,SBD,M
Boys,124.74,4,Raymond Torres,Zapata,124.74,102.06,81.65,147.42,331.12,Single-ply,SBD,M
Boys,124.74,5,Chris Gloria,Carrizo Springs,114.31,102.06,63.5,102.06,267.62,Single-ply,SBD,M
Boys,124.74+,1,George Hughes,San Diego,139.34,249.48,158.76,217.72,625.96,Single-ply,SBD,M
Boys,124.74+,2,Mike Moreno,Zapata,127.01,204.12,156.49,188.24,548.85,Single-ply,SBD,M
Boys,124.74+,3,Rafa Rendon,Zapata,131.54,113.4,90.72,145.15,349.27,Single-ply,SBD,M
