Division,Name,WeightClassKg,Sex,BirthYear,BodyweightKg,Country,Bench1Kg,Bench2Kg,Bench3Kg,Bench4Kg,Best3BenchKg,TotalKg,Event,Equipment,Place
Open,Eduviges Molina,44,F,1981,44,Venezuela,55,62.5,70,75,70,70,B,Single-ply,1
Juniors,Yliana Rodriguez,48,F,1983,46.8,Uruguay,-35,35,37.5,,37.5,37.5,B,Single-ply,1
Masters 2,Zuray Marcano,48,F,1954,47.9,Venezuela,55,65,67.5,70,67.5,67.5,B,Single-ply,1
Open,Ana Telechea,52,F,1978,48.4,Uruguay,-45,50,-52.5,,50,50,B,Single-ply,1
Open,Florencia Olascoaga,52,F,1982,51.3,Uruguay,47.5,-52,-52.5,,47.5,47.5,B,Single-ply,2
Sub-Juniors,Sandra Ocampo,52,F,1991,49.4,Uruguay,-37.5,-37.5,-37.5,,,,B,Single-ply,DQ
Juniors,Silvana Teliz,52,F,1983,49,Uruguay,30,35,40,,40,40,B,Single-ply,1
Juniors,Mary Ron,56,F,1987,54.2,Venezuela,87.5,95,100,,100,100,B,Single-ply,1
Sub-Juniors,Ana Pauluk,56,F,1991,52.6,Uruguay,32.5,-37.5,-37.5,,32.5,32.5,B,Single-ply,1
Masters 1,Marilia Coutinho,56,F,1963,55.6,Brazil,-67.5,67.5,-75,,67.5,67.5,B,Single-ply,1
Masters 1,Laura Carrara,56,F,1966,53.6,Uruguay,-50,50,-55,,50,50,B,Single-ply,1
Open,Yolimar Cobos,60,F,1982,57.6,Venezuela,97.5,102.5,-107.5,,102.5,102.5,B,Single-ply,1
Juniors,Victoria Silvera,60,F,1987,56.7,Uruguay,50,57.5,-60,,57.5,57.5,B,Single-ply,1
Masters 2,Christine Wender,60,F,1955,56.7,Brazil,67.5,72.5,77.5,,77.5,77.5,B,Single-ply,1
Masters 3,Ana Ugarte,60,F,1942,56.5,Uruguay,30,35,40,,40,40,B,Single-ply,1
Open,Paula Maciel,67.5,F,1981,61.4,Uruguay,65,-75,-75,,65,65,B,Single-ply,1
Open,Maria Piriz,67.5,F,1980,61.8,Uruguay,-75,-75,-75,,,,B,Single-ply,DQ
Masters 1,Maria Gonzalez,67.5,F,1961,65,Uruguay,-55,55,60,,60,60,B,Single-ply,1
Masters 3,Benedita Do Nascimento,67.5,F,1944,62,Brazil,65,67.5,70,,70,70,B,Single-ply,1
Masters 1,Valentina Moreno,67.5,F,1964,67.1,Mexico,102.5,110,115,,115,115,B,Single-ply,1
Juniors,Abisay Hernández,75,F,1984,72.1,Venezuela,100,-110,110,,110,110,B,Single-ply,1
Juniors,Delgado Lourdes,75,F,1986,67.6,Uruguay,50,57.5,-62.5,,57.5,57.5,B,Single-ply,2
Masters 1,Sylvia Xalambri,75,F,1963,72.1,Uruguay,47.5,-52.5,-55,,47.5,47.5,B,Single-ply,1
Masters 2,Dora Costa,75,F,1956,75,Brazil,70,80.5,82.5,85,82.5,82.5,B,Single-ply,1
Masters 2,Sonia Souza,75,F,1952,73.1,Uruguay,-45,45,57.5,,57.5,57.5,B,Single-ply,2
Sub-Juniors,Vanessa Sanabria,75,F,1989,70.6,Uruguay,40,-47.5,,,40,40,B,Single-ply,1
Juniors,Juliana Miranda,82.5,F,1983,78.9,Brazil,50,57.5,62.5,,62.5,62.5,B,Single-ply,1
Open,Nadia Zabala,90+,F,1982,97.3,Venezuela,90,100,-107.5,,100,100,B,Single-ply,1
Juniors,Henry Viera,52,M,1984,51,Ecuador,75,-90,-95,,75,75,B,Single-ply,1
Open,William Jarrin,52,M,1973,52,Uruguay,95,100,102.5,,102.5,102.5,B,Single-ply,1
Juniors,Gabriel De Poi,52,M,1986,51,Uruguay,55,-60,60,,60,60,B,Single-ply,1
Open,Carlos Betancurt,56,M,1981,55.1,Venezuela,107.5,117.5,125,,125,125,B,Single-ply,1
Masters 1,Carlos Gonzalez,56,M,1958,54.9,Uruguay,-90,-90,90,-113,90,90,B,Single-ply,1
Juniors,Daniel Quimi,56,M,1987,53.7,Ecuador,110,-122.5,122.5,,122.5,122.5,B,Single-ply,1
Juniors,Haroldo Sakamoto,56,M,1983,55.4,Brazil,90,-95,100,,100,100,B,Single-ply,2
Juniors,Juan Roda,56,M,1986,54.3,Uruguay,65,70,75,,75,75,B,Single-ply,3
Open,Eliub Orta,60,M,1981,58.8,Venezuela,130,137.5,145,,145,145,B,Single-ply,1
Open,Leandro Maccari,60,M,1979,60,Brazil,125,132.5,-147.5,,132.5,132.5,B,Single-ply,2
Masters 1,Jose Ferrer,60,M,1965,59.2,Argentina,100,105,-107.5,,105,105,B,Single-ply,1
Juniors,Nicolas Silva,60,M,1986,57.8,Uruguay,60,-70,-77.5,,60,60,B,Single-ply,1
Open,Juan Soto,67.5,M,1981,66.9,Uruguay,150,152.5,-157.5,,152.5,152.5,B,Single-ply,1
Open,Alejandro Gómez,67.5,M,1977,67.1,Argentina,140,-152.5,-155,,140,140,B,Single-ply,2
Open,Daniel Decia,67.5,M,1970,62.2,Uruguay,112.5,117.5,-122.5,,117.5,117.5,B,Single-ply,3
Juniors,Edilânio Soares,67.5,M,1983,62.2,Brazil,85,-92.5,92.5,,92.5,92.5,B,Single-ply,1
Sub-Juniors,Paul Diron,67.5,M,1988,62.2,Uruguay,-110,117.5,-122.5,,117.5,117.5,B,Single-ply,1
Sub-Juniors,Fernando Satyro,67.5,M,1989,65.7,Brazil,110,115,-120,,115,115,B,Single-ply,2
Masters 1,Jorge Gil,67.5,M,1965,64.2,Uruguay,80,90,-100,,90,90,B,Single-ply,1
Masters 1,Mario Blanco,67.5,M,1959,62.5,Uruguay,-65,65,-75,,65,65,B,Single-ply,2
Masters 2,Carlos Palombo,67.5,M,1956,65.5,Uruguay,-105,105,-110,,105,105,B,Single-ply,1
Masters 3,Jose Mata,67.5,M,,64.3,Argentina,95.5,-102.5,-105,,95.5,95.5,B,Single-ply,1
Masters 3,Julio Cesar Chura,67.5,M,1946,66.9,Peru,95,-105,-107.5,,95,95,B,Single-ply,2
Open,Jorge Telechea,75,M,1965,74.7,Argentina,-185,185,-195.5,,185,185,B,Single-ply,1
Open,Daniel Fernandez,75,M,1970,74.1,Uruguay,165,172.5,-185,,172.5,172.5,B,Single-ply,2
Open,Pedro Verdesoto,75,M,1971,74.3,Ecuador,150,160,-167.5,,160,160,B,Single-ply,3
Sub-Juniors,Santiago Arocena,75,M,1988,71.6,Uruguay,-120,120,-132.5,,120,120,B,Single-ply,1
Masters 1,José Inguanti,75,M,1963,70.8,Argentina,185,192.5,-196,,192.5,192.5,B,Single-ply,1
Masters 1,Isaak Kraus,75,M,,74.2,Mexico,110,115,-117.5,,115,115,B,Single-ply,1
Juniors,Mario Navarro,75,M,1985,73.7,Uruguay,145,-155,-155,,145,145,B,Single-ply,1
Masters 2,Carlos D. Campagna,75,M,1956,74.1,Argentina,140,152.5,157.5,160,157.5,157.5,B,Single-ply,1
Masters 3,Berrocal Cesar,75,M,,68.2,Peru,90,95,-100,,95,95,B,Single-ply,1
Masters 3,Mateus Dos Santos,75,M,1941,70.3,Brazil,85,95,-100,,95,95,B,Single-ply,2
Juniors,Alfonso Saturno,82.5,M,1985,79.3,Venezuela,190,195,-200,,195,195,B,Single-ply,1
Open,Marcelo Mendoza,82.5,M,1977,79,Argentina,162.5,-172.5,-175,,162.5,162.5,B,Single-ply,1
Juniors,Rodrigo Fernandez,82.5,M,1984,82.2,Uruguay,-165,-165,-165,,,,B,Single-ply,DQ
Sub-Juniors,Leandro Arezo,82.5,M,1988,79.5,Uruguay,120,-122.5,122.5,,122.5,122.5,B,Single-ply,1
Masters 1,Javier Bandera,82.5,M,1961,81.3,Uruguay,170,175,-180,,175,175,B,Single-ply,1
Masters 1,Osvaldo Gutierrez,82.5,M,,82.3,Argentina,150,160,165,,165,165,B,Single-ply,1
Masters 1,Adalberto Aristi,82.5,M,1966,81.3,Argentina,150,160,-162.5,,160,160,B,Single-ply,2
Masters 1,Jose Saldanha,82.5,M,1964,80.8,Peru,150,-170,-170,,150,150,B,Single-ply,3
Masters 2,Miguel López,82.5,M,1952,81.5,Uruguay,-145,-145,145,,145,145,B,Single-ply,1
Masters 2,Milton Davezack,82.5,M,1954,81.7,Uruguay,135,-140,-147.5,,135,135,B,Single-ply,2
Masters 3,Antonio Kovar,82.5,M,1946,81.6,Uruguay,110,115,117.5,,117.5,117.5,B,Single-ply,1
Masters 3,Dario Martinez,82.5,M,,82,Argentina,80,90,-100,,90,90,B,Single-ply,2
Juniors,Rodrigo Moraes,90,M,1983,89.7,Brazil,210,-215,215,,215,215,B,Single-ply,1
Open,Hernán Ron,90,M,1981,89,Venezuela,205,212.5,-217.5,,212.5,212.5,B,Single-ply,1
Open,Juan Rosell,90,M,1977,88.8,Argentina,-190,190,-200,,190,190,B,Single-ply,2
Juniors,Mathias Pereira,90,M,1986,87.9,Uruguay,-210,-210,-210,,,,B,Single-ply,DQ
Sub-Juniors,Marcelo Aquino,90,M,,88.5,Argentina,-150,150,157.5,,157.5,157.5,B,Single-ply,1
Sub-Juniors,Caio De Freitas,90,M,1989,88.8,Brazil,130,-140,-140,,130,130,B,Single-ply,2
Masters 1,Claudio Pagano,90,M,1961,89.7,Argentina,155,160,-165,,160,160,B,Single-ply,1
Masters 1,Sergio Cousau,90,M,,88.7,Argentina,150,155,-162.5,,155,155,B,Single-ply,2
Masters 2,Francisco Ventilari,90,M,1954,88.8,Brazil,160,175,-180,,175,175,B,Single-ply,1
Masters 2,Pablo Copa,90,M,1954,88.6,Argentina,145,-152.5,-152.5,,145,145,B,Single-ply,2
Masters 2,Jorge De Armas,90,M,1950,89.2,Uruguay,-125,125,-130,,125,125,B,Single-ply,3
Masters 3,Alfredo Grillo,90,M,1946,89.1,Argentina,167.5,-175.5,-175.5,,167.5,167.5,B,Single-ply,1
Open,Valdecir Lopes,100,M,1972,98.9,Brazil,240,250,-261,,250,250,B,Single-ply,1
Open,Lawrence Miranda,100,M,1970,97.7,Brazil,-190,-195,195,,195,195,B,Single-ply,2
Juniors,Martin Garrido,100,M,,91.6,Argentina,140,147.5,152.5,,152.5,152.5,B,Single-ply,1
Juniors,Antoni Aleman,100,M,1983,96.9,Uruguay,140,145,-152.5,,145,145,B,Single-ply,2
Juniors,Mathias Domínguez,100,M,1986,90.9,Uruguay,130,135,-142.5,,135,135,B,Single-ply,3
Sub-Juniors,Oscar Sartorio,100,M,1988,94.7,Uruguay,140,-150,-160,,140,140,B,Single-ply,1
Masters 1,Gabriel Alvarez,100,M,1961,98.5,Argentina,200,-210,212.5,-215,212.5,212.5,B,Single-ply,1
Masters 1,Guillermo Equiza,100,M,1965,92,Argentina,150,155,160,,160,160,B,Single-ply,2
Masters 1,Eduardo Rodriguez,100,M,1962,96.8,Uruguay,145,155,160,,160,160,B,Single-ply,3
Masters 1,Omar Nicolini,100,M,1964,94.8,Uruguay,135,140,145,,145,145,B,Single-ply,4
Masters 2,Julio Lezama,100,M,1949,94.7,Uruguay,130,-135,135,,135,135,B,Single-ply,1
Masters 2,Daniel Giacobone,100,M,1953,96.4,Argentina,-110,110,117.5,,117.5,117.5,B,Single-ply,2
Masters 2,Ricardo Fregueiro,100,M,1953,92.2,Uruguay,105,-115,115,,115,115,B,Single-ply,3
Masters 3,Luis Comell,100,M,,90.7,Argentina,-115,-115,115,,115,115,B,Single-ply,1
Open,José Fernández,110,M,1969,100.9,Uruguay,-235,245,-255,,245,245,B,Single-ply,1
Open,Eduardo Alcaraz,110,M,1968,103.2,Argentina,220,232.5,237.5,,237.5,237.5,B,Single-ply,2
Open,Edmur Pesoa,110,M,1967,110,Brazil,220,230,237.5,,237.5,237.5,B,Single-ply,3
Open,João Carlos Zaccarias,110,M,1968,102.6,Brazil,195,-200,-200,,195,195,B,Single-ply,4
Open,Sergio Alvarez,110,M,1968,108.6,Uruguay,-235,-235,-235,,,,B,Single-ply,DQ
Sub-Juniors,Gonzalo Viana,110,M,1988,108.9,Uruguay,135,-140,145,,145,145,B,Single-ply,1
Juniors,Ignacio Caetano,110,M,1987,107.8,Uruguay,190,-200,-200,,190,190,B,Single-ply,1
Juniors,Miguel Savioli,110,M,1984,110,Argentina,-170,170,-192.5,,170,170,B,Single-ply,2
Masters 1,Jorge Curbelo,110,M,1963,106.1,Uruguay,185,-195,195,-210.5,195,195,B,Single-ply,1
Masters 1,Ricardo Encina,110,M,,104.1,Argentina,-180,180,185,,185,185,B,Single-ply,2
Masters 1,Edgard Cardoso,110,M,1962,102.2,Brazil,155,165,170,,170,170,B,Single-ply,3
Masters 1,Oscar Lopretti,110,M,1957,101,Uruguay,-115,115,120,,120,120,B,Single-ply,4
Masters 2,Jose Santa Rosa,110,M,,100.3,Uruguay,-100,-100,,,100,100,B,Single-ply,1
Masters 3,José Fernández,110,M,,104.6,Argentina,100,115,-125,,115,115,B,Single-ply,1
Open,Angel Guacheque,125,M,1968,117.8,Venezuela,255,260,-262.5,,260,260,B,Single-ply,1
Open,Walter San Miguel,125,M,1971,122.3,Argentina,240,252.5,-262.5,,252.5,252.5,B,Single-ply,2
Open,Wagner De Almeida,125,M,1975,120.6,Brazil,-230,235,240,,240,240,B,Single-ply,3
Open,Clovis Correa,125,M,1972,120.8,Brazil,220,230,-237.5,,230,230,B,Single-ply,4
Open,Abel Jiménez,125,M,1978,122.9,Uruguay,-245,-250,-250,,,,B,Single-ply,DQ
Juniors,José Coelho,125,M,1985,112.4,Brazil,-225,-225,-225,,,,B,Single-ply,DQ
Masters 1,Alfio Comparatore,125,M,,116.5,Argentina,205,216,-220,,216,216,B,Single-ply,1
Masters 1,Javier Gerini,125,M,,112.2,Argentina,180,-192.5,-215,,180,180,B,Single-ply,2
Masters 2,Norberto Carrizo,125,M,1948,114.6,Argentina,100,110,-120,,110,110,B,Single-ply,1
Masters 2,Juan Abadi,125,M,1948,122.5,Uruguay,85,90,-95,,90,90,B,Single-ply,2
Open,Jaime Barrezueta,125+,M,,133.7,Ecuador,250,255.5,-260,,255.5,255.5,B,Single-ply,1
Open,Luis Sevilla,125+,M,1982,135.3,Venezuela,230,-240,-240,,230,230,B,Single-ply,1
Open,Carlos Guevara,125+,M,1971,135.1,Argentina,200,-212.5,-212.5,,200,200,B,Single-ply,1
Open,Marcelo Soares,125+,M,1970,152,Brazil,-245,-245,-245,,,,B,Single-ply,DQ
Open,Cristhian Borrea,125+,M,1982,153,Uruguay,-250,-250,-260,,,,B,Single-ply,DQ
Masters 1,Aldo Mazzoni,125+,M,1959,137,Uruguay,150,-165,,,150,150,B,Single-ply,1
Masters 1,Javier Prosper,125+,M,1960,137.2,Uruguay,-100,100,-115,,100,100,B,Single-ply,1
