Division,WeightClassKg,Place,Name,Team,BodyweightKg,Best3SquatKg,Best3BenchKg,Best3DeadliftKg,TotalKg,Equipment,Event,Sex,BirthDate
Boys,51.71,1,Adrian Linares,Victoria West,47.17,122.47,83.91,129.27,335.66,Single-ply,SBD,M,
Boys,51.71,2,Alex Le,Palacios,48.72,120.2,74.84,129.27,324.32,Single-ply,SBD,M,
Boys,51.71,3,Beau Galetti,Ganado,47.81,88.45,47.63,102.06,238.14,Single-ply,SBD,M,
Boys,55.79,DQ,Bruce Burtschell,Ganado,53.98,,,,,Single-ply,SBD,M,
Boys,59.87,1,Tyrin Brito,Ganado,58.33,147.42,58.97,156.49,362.87,Single-ply,SBD,M,
Boys,59.87,2,Blayke Yeager,Louise,59.87,122.47,74.84,149.69,347,Single-ply,SBD,M,
Boys,59.87,3,Ian Chreene,Vanderbilt Industrial,57.88,115.67,79.38,147.42,342.46,Single-ply,SBD,M,
Boys,59.87,4,Thomas Garcia,Palacios,58.69,104.33,70.31,127.01,301.64,Single-ply,SBD,M,
Boys,59.87,5,Karson Van Pelt,Vanderbilt Industrial,57.06,83.91,56.7,111.13,251.74,Single-ply,SBD,M,
Boys,59.87,DQ,Stade Yount,Louise,59.87,,86.18,127.01,,Single-ply,SBD,M,
Boys,67.13,1,Moises Amaro,Palacios,67.04,231.33,165.56,188.24,585.13,Single-ply,SBD,M,
Boys,67.13,2,Bryce Duke,Palacios,65.86,147.42,86.18,181.44,415.04,Single-ply,SBD,M,
Boys,67.13,3,Dominic Diaz,Victoria West,67.13,142.88,83.91,149.69,376.48,Single-ply,SBD,M,
Boys,67.13,4,Anthony Garza,Victoria West,64.95,124.74,88.45,161.03,374.21,Single-ply,SBD,M,
Boys,67.13,5,Kadin Nunez,Bay City,65.05,124.74,68.04,151.95,344.73,Single-ply,SBD,M,
Boys,67.13,6,Stephen Kelly,Ganado,64.86,99.79,58.97,136.08,294.84,Single-ply,SBD,M,
Boys,67.13,7,Jacob Nguyen,Palacios,62.69,102.06,61.23,124.74,288.03,Single-ply,SBD,M,
Boys,67.13,DQ,Chance McRae,Palacios,63.59,,,,,Single-ply,SBD,M,
Boys,67.13,DQ,Freddy Samano,Victoria West,62.32,151.95,79.38,,,Single-ply,SBD,M,
Boys,74.84,1,Noah Martinez #2,Victoria West,73.94,272.16,149.69,269.89,691.73,Single-ply,SBD,M,
Boys,74.84,2,Jeraan Arguellez,Vanderbilt Industrial,70.67,149.69,102.06,154.22,405.97,Single-ply,SBD,M,
Boys,74.84,3,Kevin Lara,El Maton Tidehaven,71.76,136.08,86.18,158.76,381.02,Single-ply,SBD,M,
Boys,74.84,4,Eryc Oliver,Louise,68.86,106.59,72.57,154.22,333.39,Single-ply,SBD,M,
Boys,74.84,5,Austin Hill #3,Van Vleck,71.67,149.69,61.23,61.23,272.16,Single-ply,SBD,M,
Boys,74.84,DQ,Tony Aretega,Palacios,68.86,,,,,Single-ply,SBD,M,
Boys,74.84,DQ,Jacob Lawrence,Victoria West,68.4,,,,,Single-ply,SBD,M,
Boys,74.84,DQ,Jesse Cornish,Vanderbilt Industrial,72.94,,,,,Single-ply,SBD,M,
Boys,82.1,1,Jace Vasquez,Victoria West,78.74,215.46,136.08,244.94,596.47,Single-ply,SBD,M,
Boys,82.1,2,Derek Luna,Louise,80.83,172.37,120.2,226.8,519.36,Single-ply,SBD,M,
Boys,82.1,3,Cameron Davis #1,Bloomington,78.38,124.74,79.38,136.08,340.19,Single-ply,SBD,M,
Boys,82.1,4,Hayden Nieto,Palacios,76.57,111.13,72.57,151.95,335.66,Single-ply,SBD,M,
Boys,82.1,5,Gabriel Roemer,Palacios,82.1,111.13,52.16,142.88,306.17,Single-ply,SBD,M,
Boys,82.1,DQ,Roy Arrambide,Louise,77.11,,65.77,131.54,,Single-ply,SBD,M,
Boys,89.81,1,Randy Samano,Victoria West,87.91,217.72,124.74,206.38,548.85,Single-ply,SBD,M,
Boys,89.81,2,Nicolas Delgado,Victoria West,88.99,190.51,136.08,204.12,530.7,Single-ply,SBD,M,
Boys,89.81,3,Zach Pierce,El Maton Tidehaven,89.45,190.51,111.13,217.72,519.36,Single-ply,SBD,M,
Boys,89.81,4,Bradley Flores,Bloomington,85.55,192.78,120.2,192.78,505.76,Single-ply,SBD,M,
Boys,89.81,5,Xavier Perez #1,Palacios,87.63,190.51,102.06,188.24,480.81,Single-ply,SBD,M,
Boys,89.81,6,David Zavala,Palacios,88.81,181.44,106.59,174.63,462.66,Single-ply,SBD,M,
Boys,89.81,7,Chris Garcia #12,Palacios,88.36,133.81,97.52,151.95,383.29,Single-ply,SBD,M,
Boys,89.81,8,Glen Ihde,Bay City,85.55,138.35,74.84,158.76,371.95,Single-ply,SBD,M,
Boys,89.81,9,Ethan Resendez,Louise,89.36,122.47,79.38,136.08,337.93,Single-ply,SBD,M,
Boys,89.81,DQ,Nathan Nguyen,Palacios,83.19,133.81,72.57,,,Single-ply,SBD,M,
Boys,99.79,1,Ray Buckner,Victoria West,98.97,183.7,117.93,235.87,537.51,Single-ply,SBD,M,
Boys,99.79,2,Josh Figueroa,Van Vleck,95.35,219.99,122.47,183.7,526.17,Single-ply,SBD,M,
Boys,99.79,3,Devin Johnson,Bloomington,93.89,151.95,92.99,170.1,415.04,Single-ply,SBD,M,
Boys,99.79,4,Isaiah Baladez,Bloomington,95.44,156.49,79.38,161.03,396.89,Single-ply,SBD,M,
Boys,99.79,5,Logan Jones,Van Vleck,98.52,142.88,83.91,142.88,369.68,Single-ply,SBD,M,
Boys,99.79,6,Christian Martinez,Van Vleck,95.8,147.42,86.18,124.74,358.34,Single-ply,SBD,M,
Boys,99.79,7,Herasmo Guerrero,Palacios,98.25,124.74,74.84,142.88,342.46,Single-ply,SBD,M,
Boys,109.77,1,Daniel Gaona,Louise,108.59,195.04,129.27,190.51,514.83,Single-ply,SBD,M,
Boys,109.77,2,Micah Coleman,El Maton Tidehaven,107.77,183.7,127.01,183.7,494.42,Single-ply,SBD,M,
Boys,109.77,3,Damian Diaz,Victoria West,105.69,183.7,108.86,183.7,476.27,Single-ply,SBD,M,
Boys,124.74,1,Tristan Bermea,Vanderbilt Industrial,110.68,263.08,170.1,226.8,659.98,Single-ply,SBD,M,
Boys,124.74,2,Jerry Johnson,El Maton Tidehaven,121.02,263.08,151.95,204.12,619.15,Single-ply,SBD,M,
Boys,124.74,3,Logan MacLennan,Bay City,117.48,192.78,115.67,197.31,505.76,Single-ply,SBD,M,
Boys,124.74,4,Ethan Carr,Palacios,121.47,190.51,142.88,142.88,476.27,Single-ply,SBD,M,
Boys,124.74,5,Isaac Allen,Bay City,119.93,170.1,106.59,172.37,449.06,Single-ply,SBD,M,
Boys,124.74,6,Jace Kitchens,Vanderbilt Industrial,110.77,158.76,113.4,154.22,426.38,Single-ply,SBD,M,
Boys,124.74,7,Nathan Olgiun,Bloomington,117.39,142.88,97.52,151.95,392.36,Single-ply,SBD,M,
Boys,124.74,8,Ellian Perez,Palacios,113.67,154.22,83.91,147.42,385.55,Single-ply,SBD,M,
Boys,124.74,9,Henry Lopez,Palacios,112.04,131.54,86.18,151.95,369.68,Single-ply,SBD,M,
Boys,124.74,DQ,Wyatt Gobert,Van Vleck,121.11,201.85,131.54,,,Single-ply,SBD,M,
Boys,124.74,DQ,Chris Vasquez,Louise,119.29,213.19,102.06,,,Single-ply,SBD,M,
Boys,124.74+,1,Keegan Carrillo,El Maton Tidehaven,135.53,226.8,151.95,197.31,576.06,Single-ply,SBD,M,
Boys,124.74+,2,Patrick Perkins,Van Vleck,170.64,210.92,138.35,204.12,553.38,Single-ply,SBD,M,
Boys,124.74+,3,Jacob Smith,Vanderbilt Industrial,141.25,199.58,117.93,151.95,469.47,Single-ply,SBD,M,
Boys,124.74+,4,Dean Ramsey,Ganado,127.37,172.37,102.06,183.7,458.13,Single-ply,SBD,M,
Boys,124.74+,5,Danail Garcia,Bloomington,134.76,163.29,92.99,190.51,446.79,Single-ply,SBD,M,
